Building a Memory Hierarchy/Part 3 - Instruction Cache and Memory/cpu_wavedata.vcd
$date
	Sun Sep 13 14:36:08 2020
$end
$version
	Icarus Verilog
$end
$timescale
	1s
$end
$scope module test $end
$var wire 32 ! inst [31:0] $end
$var wire 32 " PC [31:0] $end
$var reg 1 # clk $end
$var reg 1 $ reset $end
$scope module mycpu $end
$var wire 1 # CLK $end
$var wire 32 % INSTRUCTION [31:0] $end
$var wire 1 $ RESET $end
$var wire 3 & WRITEREG [2:0] $end
$var wire 3 ' READREG2 [2:0] $end
$var wire 3 ( READREG1 [2:0] $end
$var wire 32 ) PC [31:0] $end
$var wire 8 * OUT5 [7:0] $end
$var wire 8 + OUT4 [7:0] $end
$var wire 8 , OUT3 [7:0] $end
$var wire 8 - OUT2 [7:0] $end
$var wire 8 . OUT1 [7:0] $end
$var wire 3 / OP_CODE [2:0] $end
$var wire 8 0 IN [7:0] $end
$var reg 3 1 ALUOP [2:0] $end
$var reg 3 2 DESTINATION [2:0] $end
$var reg 8 3 IM_VAL [7:0] $end
$var reg 1 4 MUX1_SEL $end
$var reg 1 5 MUX2_SEL $end
$var reg 1 6 WRITEENABLE $end
$scope module cpu_MUX1 $end
$var wire 1 4 control $end
$var wire 8 7 b [7:0] $end
$var wire 8 8 a [7:0] $end
$var reg 8 9 out [7:0] $end
$upscope $end
$scope module cpu_MUX2 $end
$var wire 8 : a [7:0] $end
$var wire 8 ; b [7:0] $end
$var wire 1 5 control $end
$var reg 8 < out [7:0] $end
$upscope $end
$scope module cpu_alu $end
$var wire 8 = DATA2 [7:0] $end
$var wire 3 > SELECT [2:0] $end
$var wire 8 ? DATA1 [7:0] $end
$var reg 8 @ RESULT [7:0] $end
$upscope $end
$scope module cpu_compliment $end
$var wire 8 A out [7:0] $end
$var wire 8 B in [7:0] $end
$var reg 8 C comp [7:0] $end
$upscope $end
$scope module cpu_counter $end
$var wire 1 # clk $end
$var wire 1 $ reset $end
$var reg 32 D INSTaddr [31:0] $end
$upscope $end
$scope module cpu_reg_file $end
$var wire 1 # CLK $end
$var wire 8 E IN [7:0] $end
$var wire 3 F INADDRESS [2:0] $end
$var wire 8 G OUT1 [7:0] $end
$var wire 3 H OUT1ADDRESS [2:0] $end
$var wire 8 I OUT2 [7:0] $end
$var wire 3 J OUT2ADDRESS [2:0] $end
$var wire 1 $ RESET $end
$var wire 1 6 WRITE $end
$upscope $end
$upscope $end
$upscope $end
$enddefinitions $end
#0
$dumpvars
bx J
bx I
bx H
bx G
bx F
bx E
bx D
b11111111 C
bx B
bx A
bx @
bx ?
bx >
bx =
bx <
bx ;
bx :
bx 9
bx 8
bx 7
x6
x5
x4
bx 3
bx 2
bx 1
bx 0
bx /
bx .
bx -
bx ,
bx +
bx *
bx )
bx (
bx '
bx &
bx %
0$
0#
bx "
bx !
$end
#5
1#
#7
1$
#8
b0 "
b0 )
b0 D
#10
b1 &
b1 F
b1 2
b111 '
b111 J
b0 (
b0 H
b0 /
b10000000011110111 !
b10000000011110111 %
0#
#11
b11110111 *
b11110111 <
b11110111 =
b11110111 3
b11110111 :
b0 1
b0 >
05
16
#12
b11110111 0
b11110111 @
b11110111 E
b0 ,
b0 7
b0 A
b0 -
b0 8
b0 B
b0 I
b0 .
b0 ?
b0 G
0$
#15
1#
#16
b100 "
b100 )
b100 D
#18
b11 &
b11 F
b11 2
b1 '
b1 J
b10 (
b10 H
b10 /
b10000000110000001000000001 !
b10000000110000001000000001 %
#19
b0 *
b0 <
b0 =
b0 +
b0 9
b0 ;
b1 1
b1 >
15
04
#20
b11110111 *
b11110111 <
b11110111 =
b11110111 +
b11110111 9
b11110111 ;
b1001 ,
b1001 7
b1001 A
b11110111 -
b11110111 8
b11110111 B
b11110111 I
0#
#25
1#
#26
b1000 "
b1000 )
b1000 D
#28
b1 &
b1 F
b1 2
b1 (
b1 H
b11 /
b11000000010000000100000001 !
b11000000010000000100000001 %
#29
b1001 *
b1001 <
b1001 =
b1001 +
b1001 9
b1001 ;
14
#30
b11110111 .
b11110111 ?
b11110111 G
0#
#31
b0 0
b0 @
b0 E
#35
1#
#36
b1100 "
b1100 )
b1100 D
#38
b10 &
b10 F
b10 2
b0 (
b0 H
b1 /
b1000000100000000000000001 !
b1000000100000000000000001 %
#39
b0 *
b0 <
b0 =
b0 +
b0 9
b0 ;
b0 1
b0 >
04
b0 .
b0 ?
b0 G
b0 ,
b0 7
b0 A
b0 -
b0 8
b0 B
b0 I
#40
0#
#45
1#
#46
b10000 "
b10000 )
b10000 D
#48
b100 &
b100 F
b100 2
b10 '
b10 J
b1 (
b1 H
b10 /
b10000001000000000100000010 !
b10000001000000000100000010 %
#49
b1 1
b1 >
#50
0#
#55
1#
#56
b10100 "
b10100 )
b10100 D
#58
b1 &
b1 F
b1 2
b0 (
b0 H
b0 /
b1000000000010000000000000010 !
b1000000000010000000000000010 %
#59
b10 *
b10 <
b10 =
b10 3
b10 :
b0 1
b0 >
05
#60
b10 0
b10 @
b10 E
0#
#65
1#
#66
b11000 "
b11000 )
b11000 D
#68
b0 &
b0 F
b0 2
b1 '
b1 J
b1 /
b1000000000000000000000001 !
b1000000000000000000000001 %
#69
b0 *
b0 <
b0 =
15
#70
b10 *
b10 <
b10 =
b10 +
b10 9
b10 ;
b0 0
b0 @
b0 E
b11111110 ,
b11111110 7
b11111110 A
b10 -
b10 8
b10 B
b10 I
0#
#71
b10 0
b10 @
b10 E
#75
1#
#76
b11100 "
b11100 )
b11100 D
#78
b1 &
b1 F
b1 2
b10 '
b10 J
b0 /
b10000000000000010 !
b10000000000000010 %
#79
05
b10 .
b10 ?
b10 G
#80
b0 +
b0 9
b0 ;
b0 ,
b0 7
b0 A
b0 -
b0 8
b0 B
b0 I
0#
#85
1#
#86
b100000 "
b100000 )
b100000 D
#88
b10 &
b10 F
b10 2
b1 '
b1 J
b1 /
b1000000100000000000000001 !
b1000000100000000000000001 %
#89
b0 *
b0 <
b0 =
15
#90
b10 *
b10 <
b10 =
b10 +
b10 9
b10 ;
b0 0
b0 @
b0 E
b11111110 ,
b11111110 7
b11111110 A
b10 -
b10 8
b10 B
b10 I
0#
#91
b10 0
b10 @
b10 E
#95
1#
#96
b100100 "
b100100 )
b100100 D
#98
b1 &
b1 F
b1 2
b11 '
b11 J
b0 /
b10000000000000011 !
b10000000000000011 %
#99
b11 *
b11 <
b11 =
b11 3
b11 :
05
#100
b11110111 +
b11110111 9
b11110111 ;
b11 0
b11 @
b11 E
b1001 ,
b1001 7
b1001 A
b11110111 -
b11110111 8
b11110111 B
b11110111 I
0#
#105
1#
#106
b101000 "
b101000 )
b101000 D
#108
b11 &
b11 F
b11 2
b1 '
b1 J
b1 /
b1000000110000000000000001 !
b1000000110000000000000001 %
#109
b11110111 *
b11110111 <
b11110111 =
15
#110
b11 *
b11 <
b11 =
b11 +
b11 9
b11 ;
b11110111 0
b11110111 @
b11110111 E
b11111101 ,
b11111101 7
b11111101 A
b11 -
b11 8
b11 B
b11 I
0#
#111
b11 0
b11 @
b11 E
#115
1#
#116
b101100 "
b101100 )
b101100 D
#118
b1 &
b1 F
b1 2
b100 '
b100 J
b0 /
b10000000000000100 !
b10000000000000100 %
#119
b100 *
b100 <
b100 =
b100 3
b100 :
05
#120
b0 +
b0 9
b0 ;
b100 0
b100 @
b100 E
b0 ,
b0 7
b0 A
b0 -
b0 8
b0 B
b0 I
0#
#125
1#
#126
b110000 "
b110000 )
b110000 D
#128
b100 &
b100 F
b100 2
b1 '
b1 J
b1 /
b1000001000000000000000001 !
b1000001000000000000000001 %
#129
b0 *
b0 <
b0 =
15
#130
b100 *
b100 <
b100 =
b100 +
b100 9
b100 ;
b0 0
b0 @
b0 E
b11111100 ,
b11111100 7
b11111100 A
b100 -
b100 8
b100 B
b100 I
0#
#131
b100 0
b100 @
b100 E
#135
1#
#136
b110100 "
b110100 )
b110100 D
#138
b1 &
b1 F
b1 2
b101 '
b101 J
b0 /
b10000000000000101 !
b10000000000000101 %
#139
b101 *
b101 <
b101 =
b101 3
b101 :
05
#140
b0 +
b0 9
b0 ;
b101 0
b101 @
b101 E
b0 ,
b0 7
b0 A
b0 -
b0 8
b0 B
b0 I
0#
#145
1#
#146
b111000 "
b111000 )
b111000 D
#148
b101 &
b101 F
b101 2
b1 '
b1 J
b1 /
b1000001010000000000000001 !
b1000001010000000000000001 %
#149
b0 *
b0 <
b0 =
15
#150
b101 *
b101 <
b101 =
b101 +
b101 9
b101 ;
b0 0
b0 @
b0 E
b11111011 ,
b11111011 7
b11111011 A
b101 -
b101 8
b101 B
b101 I
0#
#151
b101 0
b101 @
b101 E
#155
1#
#156
b111100 "
b111100 )
b111100 D
#158
b1 &
b1 F
b1 2
b110 '
b110 J
b0 /
b10000000000000110 !
b10000000000000110 %
#159
b110 *
b110 <
b110 =
b110 3
b110 :
05
#160
b0 +
b0 9
b0 ;
b110 0
b110 @
b110 E
b0 ,
b0 7
b0 A
b0 -
b0 8
b0 B
b0 I
0#
#165
1#
#166
b1000000 "
b1000000 )
b1000000 D
#168
b110 &
b110 F
b110 2
b1 '
b1 J
b1 /
b1000001100000000000000001 !
b1000001100000000000000001 %
#169
b0 *
b0 <
b0 =
15
#170
b110 *
b110 <
b110 =
b110 +
b110 9
b110 ;
b0 0
b0 @
b0 E
b11111010 ,
b11111010 7
b11111010 A
b110 -
b110 8
b110 B
b110 I
0#
#171
b110 0
b110 @
b110 E
#175
1#
#176
b1000100 "
b1000100 )
b1000100 D
#178
b1 &
b1 F
b1 2
b111 '
b111 J
b0 /
b10000000000000111 !
b10000000000000111 %
#179
b111 *
b111 <
b111 =
b111 3
b111 :
05
#180
b0 +
b0 9
b0 ;
b111 0
b111 @
b111 E
b0 ,
b0 7
b0 A
b0 -
b0 8
b0 B
b0 I
0#
#185
1#
#186
b1001000 "
b1001000 )
b1001000 D
#188
b111 &
b111 F
b111 2
b1 '
b1 J
b1 /
b1000001110000000000000001 !
b1000001110000000000000001 %
#189
b0 *
b0 <
b0 =
15
#190
b111 *
b111 <
b111 =
b111 +
b111 9
b111 ;
b0 0
b0 @
b0 E
b11111001 ,
b11111001 7
b11111001 A
b111 -
b111 8
b111 B
b111 I
0#
#191
b111 0
b111 @
b111 E
#195
1#
#196
b1001100 "
b1001100 )
b1001100 D
#198
b1 &
b1 F
b1 2
b0 '
b0 J
b0 /
b10000000000001000 !
b10000000000001000 %
#199
b1000 *
b1000 <
b1000 =
b1000 3
b1000 :
05
#200
b10 +
b10 9
b10 ;
b1000 0
b1000 @
b1000 E
b11111110 ,
b11111110 7
b11111110 A
b10 -
b10 8
b10 B
b10 I
0#
#205
1#
#206
b1010000 "
b1010000 )
b1010000 D
#208
b1 '
b1 J
b1000000000010000000000000001 !
b1000000000010000000000000001 %
#209
b1 *
b1 <
b1 =
b1 3
b1 :
#210
b1000 +
b1000 9
b1000 ;
b1 0
b1 @
b1 E
b11111000 ,
b11111000 7
b11111000 A
b1000 -
b1000 8
b1000 B
b1000 I
0#
#215
1#
#216
b1010100 "
b1010100 )
b1010100 D
#218
b111 &
b111 F
b111 2
b100 '
b100 J
b11 (
b11 H
b100 /
b100000001110000001100000100 !
b100000001110000001100000100 %
#219
b1000 *
b1000 <
b1000 =
b10 1
b10 >
15
#220
b100 *
b100 <
b100 =
b100 +
b100 9
b100 ;
b0 0
b0 @
b0 E
b11111100 ,
b11111100 7
b11111100 A
b100 -
b100 8
b100 B
b100 I
b11 .
b11 ?
b11 G
0#
#225
1#
#226
b1011000 "
b1011000 )
b1011000 D
#228
b1 &
b1 F
b1 2
b110 '
b110 J
b101 (
b101 H
b101 /
b101000000010000010100000110 !
b101000000010000010100000110 %
#229
b11 1
b11 >
#230
b110 *
b110 <
b110 =
b110 +
b110 9
b110 ;
b101 0
b101 @
b101 E
b11111010 ,
b11111010 7
b11111010 A
b110 -
b110 8
b110 B
b110 I
b101 .
b101 ?
b101 G
0#
#231
b111 0
b111 @
b111 E
#235
1#
#236
b1011100 "
b1011100 )
b1011100 D
#238
bx &
bx F
bx 2
bx '
bx J
bx (
bx H
bx /
bx !
bx %
#240
bx *
bx <
bx =
bx +
bx 9
bx ;
bx ,
bx 7
bx A
bx -
bx 8
bx B
bx I
bx .
bx ?
bx G
0#
#241
bx 0
bx @
bx E
#245
1#
#246
b1100000 "
b1100000 )
b1100000 D
#250
0#
#255
1#
#256
b1100100 "
b1100100 )
b1100100 D
