Building a Simple Processor/Part 5 – Extended ISA/cpu_wavedata.vcd
$date
	Mon Sep 14 08:49:45 2020
$end
$version
	Icarus Verilog
$end
$timescale
	1s
$end
$scope module test $end
$var wire 32 ! inst [31:0] $end
$var wire 32 " PC [31:0] $end
$var reg 1 # clk $end
$var reg 1 $ reset $end
$scope module mycpu $end
$var wire 1 # CLK $end
$var wire 32 % INSTRUCTION [31:0] $end
$var wire 1 & MUX3_SEL $end
$var wire 1 ' MUX4_SEL $end
$var wire 32 ( PC [31:0] $end
$var wire 1 $ RESET $end
$var wire 3 ) WRITEREG [2:0] $end
$var wire 1 * zero $end
$var wire 1 + one $end
$var wire 32 , SinEx [31:0] $end
$var wire 8 - RR_OUT [7:0] $end
$var wire 3 . READREG2 [2:0] $end
$var wire 3 / READREG1 [2:0] $end
$var wire 8 0 OUT_s4 [7:0] $end
$var wire 8 1 OUT_s3 [7:0] $end
$var wire 8 2 OUT_s2 [7:0] $end
$var wire 8 3 OUT_s1 [7:0] $end
$var wire 8 4 OUT_M1 [7:0] $end
$var wire 8 5 OUT5 [7:0] $end
$var wire 8 6 OUT4 [7:0] $end
$var wire 8 7 OUT3 [7:0] $end
$var wire 8 8 OUT2 [7:0] $end
$var wire 8 9 OUT1 [7:0] $end
$var wire 4 : OP_CODE [3:0] $end
$var wire 32 ; NEXT [31:0] $end
$var wire 8 < Mult_out [7:0] $end
$var wire 8 = LR_OUT [7:0] $end
$var wire 8 > LL_OUT [7:0] $end
$var wire 32 ? J_out [31:0] $end
$var wire 8 @ IN [7:0] $end
$var wire 32 A Branch [31:0] $end
$var wire 32 B Bne_out [31:0] $end
$var wire 32 C Beq_out [31:0] $end
$var wire 8 D AR_OUT [7:0] $end
$var reg 3 E ALUOP [2:0] $end
$var reg 1 F AR_EANABLE $end
$var reg 1 G A_right $end
$var reg 1 H BEQ $end
$var reg 1 I BNE $end
$var reg 3 J DESTINATION [2:0] $end
$var reg 8 K IM_VAL [7:0] $end
$var reg 1 L JUMP $end
$var reg 1 M LL_EANABLE $end
$var reg 1 N LR_EANABLE $end
$var reg 1 O L_left $end
$var reg 1 P L_right $end
$var reg 1 Q MUX1_SEL $end
$var reg 1 R MUX2_SEL $end
$var reg 1 S Mult_EANABLE $end
$var reg 1 T Mult_select $end
$var reg 1 U RR_EANABLE $end
$var reg 1 V R_right $end
$var reg 8 W S_IM_VAL [7:0] $end
$var reg 1 X WRITEENABLE $end
$scope module cpu_Arith_right $end
$var wire 1 F EANABLE $end
$var wire 8 Y SHIFT [7:0] $end
$var wire 8 Z IN_DATA [7:0] $end
$var reg 8 [ OUT_DATA [7:0] $end
$upscope $end
$scope module cpu_Logic_left $end
$var wire 1 M EANABLE $end
$var wire 8 \ SHIFT [7:0] $end
$var wire 8 ] IN_DATA [7:0] $end
$var reg 8 ^ OUT_DATA [7:0] $end
$upscope $end
$scope module cpu_Logic_right $end
$var wire 1 N EANABLE $end
$var wire 8 _ SHIFT [7:0] $end
$var wire 8 ` IN_DATA [7:0] $end
$var reg 8 a OUT_DATA [7:0] $end
$upscope $end
$scope module cpu_MUX1 $end
$var wire 1 Q control $end
$var wire 8 b b [7:0] $end
$var wire 8 c a [7:0] $end
$var reg 8 d out [7:0] $end
$upscope $end
$scope module cpu_MUX2 $end
$var wire 8 e a [7:0] $end
$var wire 1 R control $end
$var wire 8 f b [7:0] $end
$var reg 8 g out [7:0] $end
$upscope $end
$scope module cpu_MUX32_1 $end
$var wire 32 h b [31:0] $end
$var wire 1 # clk $end
$var wire 1 & control $end
$var wire 1 $ reset $end
$var wire 32 i a [31:0] $end
$var reg 32 j out [31:0] $end
$upscope $end
$scope module cpu_MUX32_2 $end
$var wire 32 k a [31:0] $end
$var wire 32 l b [31:0] $end
$var wire 1 # clk $end
$var wire 1 ' control $end
$var wire 1 $ reset $end
$var reg 32 m out [31:0] $end
$upscope $end
$scope module cpu_MUX_M1 $end
$var wire 1 T control $end
$var wire 8 n b [7:0] $end
$var wire 8 o a [7:0] $end
$var reg 8 p out [7:0] $end
$upscope $end
$scope module cpu_MUX_s1 $end
$var wire 8 q a [7:0] $end
$var wire 8 r b [7:0] $end
$var wire 1 G control $end
$var reg 8 s out [7:0] $end
$upscope $end
$scope module cpu_MUX_s2 $end
$var wire 8 t a [7:0] $end
$var wire 8 u b [7:0] $end
$var wire 1 P control $end
$var reg 8 v out [7:0] $end
$upscope $end
$scope module cpu_MUX_s3 $end
$var wire 8 w a [7:0] $end
$var wire 8 x b [7:0] $end
$var wire 1 O control $end
$var reg 8 y out [7:0] $end
$upscope $end
$scope module cpu_MUX_s4 $end
$var wire 8 z a [7:0] $end
$var wire 1 V control $end
$var wire 8 { b [7:0] $end
$var reg 8 | out [7:0] $end
$upscope $end
$scope module cpu_PC_MUX32 $end
$var wire 1 # clk $end
$var wire 1 L control $end
$var wire 32 } input1 [31:0] $end
$var wire 32 ~ input2 [31:0] $end
$var wire 1 $ reset $end
$var reg 32 !" out [31:0] $end
$upscope $end
$scope module cpu_Rotate_right $end
$var wire 1 U EANABLE $end
$var wire 8 "" IN_DATA [7:0] $end
$var wire 8 #" SHIFT [7:0] $end
$var wire 8 $" point [7:0] $end
$var reg 8 %" OUT_DATA [7:0] $end
$upscope $end
$scope module cpu_alu $end
$var wire 8 &" DATA2 [7:0] $end
$var wire 1 + ONE $end
$var wire 3 '" SELECT [2:0] $end
$var wire 1 * ZERO $end
$var wire 8 (" DATA1 [7:0] $end
$var reg 8 )" RESULT [7:0] $end
$upscope $end
$scope module cpu_compliment $end
$var wire 8 *" out [7:0] $end
$var wire 8 +" in [7:0] $end
$var reg 8 ," comp [7:0] $end
$upscope $end
$scope module cpu_counter $end
$var wire 1 # clk $end
$var wire 32 -" in_pc [31:0] $end
$var wire 1 $ reset $end
$var reg 32 ." out_pc [31:0] $end
$upscope $end
$scope module cpu_multipilication $end
$var wire 1 S EANABLE $end
$var wire 8 /" IN1 [7:0] $end
$var wire 8 0" IN2 [7:0] $end
$var reg 8 1" OUT_DATA [7:0] $end
$upscope $end
$scope module cpu_reg_file $end
$var wire 1 # CLK $end
$var wire 8 2" IN [7:0] $end
$var wire 3 3" INADDRESS [2:0] $end
$var wire 8 4" OUT1 [7:0] $end
$var wire 3 5" OUT1ADDRESS [2:0] $end
$var wire 8 6" OUT2 [7:0] $end
$var wire 3 7" OUT2ADDRESS [2:0] $end
$var wire 1 $ RESET $end
$var wire 1 X WRITE $end
$upscope $end
$scope module cpu_sing_extend_shift $end
$var wire 8 8" IN [7:0] $end
$var wire 32 9" OUT [31:0] $end
$var reg 32 :" result [31:0] $end
$upscope $end
$upscope $end
$upscope $end
$enddefinitions $end
#0
$dumpvars
bx :"
bx 9"
bx 8"
bx 7"
bx 6"
bx 5"
bx 4"
bx 3"
bx 2"
bx 1"
bx 0"
bx /"
bx ."
bx -"
b11111111 ,"
bx +"
bx *"
bx )"
bx ("
bx '"
bx &"
bx %"
bzxxx $"
bx #"
bx ""
bx !"
bx ~
bx }
bx |
bx {
bx z
bx y
bx x
bx w
bx v
bx u
bx t
bx s
bx r
bx q
bx p
bx o
bx n
bx m
bx l
bx k
bx j
bx i
bx h
bx g
bx f
bx e
bx d
bx c
bx b
bx a
bx `
bx _
bx ^
bx ]
bx \
bx [
bx Z
bx Y
xX
bx W
xV
xU
xT
xS
xR
xQ
xP
xO
xN
xM
xL
bx K
bx J
xI
xH
xG
xF
bx E
bx D
bx C
bx B
bx A
bx @
bx ?
bx >
bx =
bx <
bx ;
bx :
bx 9
bx 8
bx 7
bx 6
bx 5
bx 4
bx 3
bx 2
bx 1
bx 0
bx /
bx .
bx -
bx ,
x+
x*
bx )
bx (
x'
x&
bx %
0$
0#
bx "
bx !
$end
#5
1#
#7
b0 C
b0 j
b0 k
b0 B
b0 m
b0 }
1$
#8
b0 "
b0 (
b0 ?
b0 !"
b0 -"
#10
b1 )
b1 3"
b1 J
b11 .
b11 7"
b0 /
b0 5"
b0 :
b10000000000000011 !
b10000000000000011 %
0#
#11
b1100 ,
b1100 9"
b1100 :"
b0 <
b0 n
b0 1"
bz000 $"
b0 -
b0 {
b0 %"
b0 >
b0 ^
b0 x
b0 =
b0 a
b0 u
b0 D
b0 [
b0 r
0'
0&
b11 5
b11 g
b11 &"
0T
0S
b0 W
b0 Y
b0 \
b0 _
b0 #"
0U
0V
0M
0O
0N
0P
0F
0G
0I
0L
0H
b11 K
b11 e
b11 8"
b0 E
b0 '"
0R
0Q
1X
#12
0*
1+
b0 4
b0 f
b0 p
b0 0
b0 o
b0 |
b0 /"
b0 1
b0 y
b0 z
b0 ""
b0 2
b0 ]
b0 v
b0 w
b0 3
b0 `
b0 s
b0 t
b0 6
b0 Z
b0 d
b0 q
b11 @
b11 )"
b11 2"
b0 7
b0 b
b0 *"
b0 8
b0 c
b0 +"
b0 6"
b0 9
b0 ("
b0 0"
b0 4"
0$
#15
b100 B
b100 m
b100 }
b100 C
b100 j
b100 k
b100 ;
b100 i
b100 ."
1#
#16
b100 "
b100 (
b100 ?
b100 !"
b100 -"
#17
b10000 A
b10000 h
b10000 l
b10000 ~
#18
b100 )
b100 3"
b100 J
b1 .
b1 7"
b1000000000000000001 !
b1000000000000000001 %
#19
b100 ,
b100 9"
b100 :"
b1 5
b1 g
b1 &"
b1 K
b1 e
b1 8"
#20
b11 4
b11 f
b11 p
b11 0
b11 o
b11 |
b11 /"
b11 1
b11 y
b11 z
b11 ""
b11 2
b11 ]
b11 v
b11 w
b11 3
b11 `
b11 s
b11 t
b11 6
b11 Z
b11 d
b11 q
b1 @
b1 )"
b1 2"
b11111101 7
b11111101 b
b11111101 *"
b11 8
b11 c
b11 +"
b11 6"
0#
#21
b1000 A
b1000 h
b1000 l
b1000 ~
#25
b1000 B
b1000 m
b1000 }
b1000 C
b1000 j
b1000 k
b1000 ;
b1000 i
b1000 ."
1#
#26
b1000 "
b1000 (
b1000 ?
b1000 !"
b1000 -"
#27
b1100 A
b1100 h
b1100 l
b1100 ~
#28
b10 )
b10 3"
b10 J
b101 .
b101 7"
b100000000000000101 !
b100000000000000101 %
#29
b10100 ,
b10100 9"
b10100 :"
b101 5
b101 g
b101 &"
b101 K
b101 e
b101 8"
#30
b0 4
b0 f
b0 p
b0 0
b0 o
b0 |
b0 /"
b0 1
b0 y
b0 z
b0 ""
b0 2
b0 ]
b0 v
b0 w
b0 3
b0 `
b0 s
b0 t
b0 6
b0 Z
b0 d
b0 q
b101 @
b101 )"
b101 2"
b0 7
b0 b
b0 *"
b0 8
b0 c
b0 +"
b0 6"
0#
#31
b11100 A
b11100 h
b11100 l
b11100 ~
#35
b1100 B
b1100 m
b1100 }
b1100 C
b1100 j
b1100 k
b1100 ;
b1100 i
b1100 ."
1#
#36
b1100 "
b1100 (
b1100 ?
b1100 !"
b1100 -"
#37
b100000 A
b100000 h
b100000 l
b100000 ~
#38
b11 )
b11 3"
b11 J
b11 .
b11 7"
b110000000000000011 !
b110000000000000011 %
#39
b1100 ,
b1100 9"
b1100 :"
b11 5
b11 g
b11 &"
b11 K
b11 e
b11 8"
#40
b11 @
b11 )"
b11 2"
0#
#41
b11000 A
b11000 h
b11000 l
b11000 ~
#45
b10000 B
b10000 m
b10000 }
b10000 C
b10000 j
b10000 k
b10000 ;
b10000 i
b10000 ."
1#
#46
b10000 "
b10000 (
b10000 ?
b10000 !"
b10000 -"
#47
b11100 A
b11100 h
b11100 l
b11100 ~
#48
b101 )
b101 3"
b101 J
b10 /
b10 5"
b10 :
b10000001010000001000000011 !
b10000001010000001000000011 %
#49
b0 ,
b0 9"
b0 :"
b11 4
b11 f
b11 p
b11 0
b11 o
b11 |
b11 /"
b11 1
b11 y
b11 z
b11 ""
b11 2
b11 ]
b11 v
b11 w
b11 3
b11 `
b11 s
b11 t
b11 5
b11 g
b11 &"
b11 6
b11 Z
b11 d
b11 q
b0 K
b0 e
b0 8"
b1 E
b1 '"
1R
b11111101 7
b11111101 b
b11111101 *"
b11 8
b11 c
b11 +"
b11 6"
#50
b101 9
b101 ("
b101 0"
b101 4"
0#
#51
b10000 A
b10000 h
b10000 l
b10000 ~
b1000 @
b1000 )"
b1000 2"
#55
b10100 B
b10100 m
b10100 }
b10100 C
b10100 j
b10100 k
b10100 ;
b10100 i
b10100 ."
1#
#56
b10100 "
b10100 (
b10100 ?
b10100 !"
b10100 -"
#57
b10100 A
b10100 h
b10100 l
b10100 ~
#58
b1 )
b1 3"
b1 J
b100 .
b100 7"
b1 /
b1 5"
b11 :
b11000000010000000100000100 !
b11000000010000000100000100 %
#59
b11111101 5
b11111101 g
b11111101 &"
b11111101 4
b11111101 f
b11111101 p
b11111101 0
b11111101 o
b11111101 |
b11111101 /"
b11111101 1
b11111101 y
b11111101 z
b11111101 ""
b11111101 2
b11111101 ]
b11111101 v
b11111101 w
b11111101 3
b11111101 `
b11111101 s
b11111101 t
b11111101 6
b11111101 Z
b11111101 d
b11111101 q
1Q
#60
b11111111 5
b11111111 g
b11111111 &"
b11111111 4
b11111111 f
b11111111 p
b11111111 0
b11111111 o
b11111111 |
b11111111 /"
b11111111 1
b11111111 y
b11111111 z
b11111111 ""
b11111111 2
b11111111 ]
b11111111 v
b11111111 w
b11111111 3
b11111111 `
b11111111 s
b11111111 t
b11111111 6
b11111111 Z
b11111111 d
b11111111 q
b11111111 7
b11111111 b
b11111111 *"
b1 8
b1 c
b1 +"
b1 6"
b11 9
b11 ("
b11 0"
b11 4"
0#
#61
0*
1+
b10 @
b10 )"
b10 2"
#65
b11000 B
b11000 m
b11000 }
b11000 C
b11000 j
b11000 k
b11000 ;
b11000 i
b11000 ."
1#
#66
b11000 "
b11000 (
b11000 ?
b11000 !"
b11000 -"
#67
b11000 A
b11000 h
b11000 l
b11000 ~
#68
b110 )
b110 3"
b110 J
b1 .
b1 7"
b0 /
b0 5"
b1 :
b1000001100000000000000001 !
b1000001100000000000000001 %
#69
b1 5
b1 g
b1 &"
b1 4
b1 f
b1 p
b1 0
b1 o
b1 |
b1 /"
b1 1
b1 y
b1 z
b1 ""
b1 2
b1 ]
b1 v
b1 w
b1 3
b1 `
b1 s
b1 t
b1 6
b1 Z
b1 d
b1 q
b0 E
b0 '"
0Q
#70
b10 5
b10 g
b10 &"
b10 4
b10 f
b10 p
b10 0
b10 o
b10 |
b10 /"
b10 1
b10 y
b10 z
b10 ""
b10 2
b10 ]
b10 v
b10 w
b10 3
b10 `
b10 s
b10 t
b10 6
b10 Z
b10 d
b10 q
b1 @
b1 )"
b1 2"
b11111110 7
b11111110 b
b11111110 *"
b10 8
b10 c
b10 +"
b10 6"
b0 9
b0 ("
b0 0"
b0 4"
0#
#71
b10 @
b10 )"
b10 2"
#75
b11100 B
b11100 m
b11100 }
b11100 C
b11100 j
b11100 k
b11100 ;
b11100 i
b11100 ."
1#
#76
b11100 "
b11100 (
b11100 ?
b11100 !"
b11100 -"
#77
b11100 A
b11100 h
b11100 l
b11100 ~
#78
b10 )
b10 3"
b10 J
b100 /
b100 5"
b111 :
b111000000100000010000000001 !
b111000000100000010000000001 %
#79
b1000 ,
b1000 9"
b1000 :"
b11111110 5
b11111110 g
b11111110 &"
b11111110 4
b11111110 f
b11111110 p
b11111110 0
b11111110 o
b11111110 |
b11111110 /"
b11111110 1
b11111110 y
b11111110 z
b11111110 ""
b11111110 2
b11111110 ]
b11111110 v
b11111110 w
b11111110 3
b11111110 `
b11111110 s
b11111110 t
b11111110 6
b11111110 Z
b11111110 d
b11111110 q
b10 K
b10 e
b10 8"
1H
b1 E
b1 '"
1Q
0X
#80
b1 9
b1 ("
b1 0"
b1 4"
0#
#81
b100100 A
b100100 h
b100100 l
b100100 ~
b11111111 @
b11111111 )"
b11111111 2"
#85
b100000 B
b100000 m
b100000 }
b100000 C
b100000 j
b100000 k
b100000 ;
b100000 i
b100000 ."
1#
#86
b100000 "
b100000 (
b100000 ?
b100000 !"
b100000 -"
#87
b101000 A
b101000 h
b101000 l
b101000 ~
#88
b100 )
b100 3"
b100 J
b0 .
b0 7"
b0 /
b0 5"
b110 :
b110111111000000000000000000 !
b110111111000000000000000000 %
#89
b11111111111111111111111111110000 ,
b11111111111111111111111111110000 9"
b11111111111111111111111111110000 :"
b11111100 K
b11111100 e
b11111100 8"
1L
0H
#90
b0 5
b0 g
b0 &"
b0 4
b0 f
b0 p
b0 0
b0 o
b0 |
b0 /"
b0 1
b0 y
b0 z
b0 ""
b0 2
b0 ]
b0 v
b0 w
b0 3
b0 `
b0 s
b0 t
b0 6
b0 Z
b0 d
b0 q
b0 7
b0 b
b0 *"
b0 8
b0 c
b0 +"
b0 6"
b0 9
b0 ("
b0 0"
b0 4"
0#
#91
b10000 A
b10000 h
b10000 l
b10000 ~
#92
1*
0+
b0 @
b0 )"
b0 2"
#95
b100100 B
b100100 m
b100100 }
b100100 C
b100100 j
b100100 k
b100100 ;
b100100 i
b100100 ."
1#
#96
b10000 "
b10000 (
b10000 ?
b10000 !"
b10000 -"
#97
b10100 A
b10100 h
b10100 l
b10100 ~
#98
b101 )
b101 3"
b101 J
b11 .
b11 7"
b10 /
b10 5"
b10 :
b10000001010000001000000011 !
b10000001010000001000000011 %
#99
b0 ,
b0 9"
b0 :"
0L
b0 K
b0 e
b0 8"
0Q
1X
#100
b11 5
b11 g
b11 &"
b11 4
b11 f
b11 p
b11 0
b11 o
b11 |
b11 /"
b11 1
b11 y
b11 z
b11 ""
b11 2
b11 ]
b11 v
b11 w
b11 3
b11 `
b11 s
b11 t
b11 6
b11 Z
b11 d
b11 q
b11111101 7
b11111101 b
b11111101 *"
b11 8
b11 c
b11 +"
b11 6"
b101 9
b101 ("
b101 0"
b101 4"
0#
#101
b100100 A
b100100 h
b100100 l
b100100 ~
#102
0*
1+
b1000 @
b1000 )"
b1000 2"
#105
b10100 B
b10100 m
b10100 }
b10100 C
b10100 j
b10100 k
b10100 ;
b10100 i
b10100 ."
1#
#106
b10100 "
b10100 (
b10100 ?
b10100 !"
b10100 -"
#107
b10100 A
b10100 h
b10100 l
b10100 ~
#108
b1 )
b1 3"
b1 J
b100 .
b100 7"
b1 /
b1 5"
b11 :
b11000000010000000100000100 !
b11000000010000000100000100 %
#109
b11111101 5
b11111101 g
b11111101 &"
b11111101 4
b11111101 f
b11111101 p
b11111101 0
b11111101 o
b11111101 |
b11111101 /"
b11111101 1
b11111101 y
b11111101 z
b11111101 ""
b11111101 2
b11111101 ]
b11111101 v
b11111101 w
b11111101 3
b11111101 `
b11111101 s
b11111101 t
b11111101 6
b11111101 Z
b11111101 d
b11111101 q
1Q
#110
b11111111 5
b11111111 g
b11111111 &"
b11111111 4
b11111111 f
b11111111 p
b11111111 0
b11111111 o
b11111111 |
b11111111 /"
b11111111 1
b11111111 y
b11111111 z
b11111111 ""
b11111111 2
b11111111 ]
b11111111 v
b11111111 w
b11111111 3
b11111111 `
b11111111 s
b11111111 t
b11111111 6
b11111111 Z
b11111111 d
b11111111 q
b11111111 7
b11111111 b
b11111111 *"
b1 8
b1 c
b1 +"
b1 6"
b10 9
b10 ("
b10 0"
b10 4"
0#
#111
0*
1+
b1 @
b1 )"
b1 2"
#115
b11000 B
b11000 m
b11000 }
b11000 C
b11000 j
b11000 k
b11000 ;
b11000 i
b11000 ."
1#
#116
b11000 "
b11000 (
b11000 ?
b11000 !"
b11000 -"
#117
b11000 A
b11000 h
b11000 l
b11000 ~
#118
b110 )
b110 3"
b110 J
b1 .
b1 7"
b0 /
b0 5"
b1 :
b1000001100000000000000001 !
b1000001100000000000000001 %
#119
b1 5
b1 g
b1 &"
b1 4
b1 f
b1 p
b1 0
b1 o
b1 |
b1 /"
b1 1
b1 y
b1 z
b1 ""
b1 2
b1 ]
b1 v
b1 w
b1 3
b1 `
b1 s
b1 t
b1 6
b1 Z
b1 d
b1 q
b0 E
b0 '"
0Q
#120
b0 9
b0 ("
b0 0"
b0 4"
0#
#125
b11100 B
b11100 m
b11100 }
b11100 C
b11100 j
b11100 k
b11100 ;
b11100 i
b11100 ."
1#
#126
b11100 "
b11100 (
b11100 ?
b11100 !"
b11100 -"
#127
b11100 A
b11100 h
b11100 l
b11100 ~
#128
b10 )
b10 3"
b10 J
b100 /
b100 5"
b111 :
b111000000100000010000000001 !
b111000000100000010000000001 %
#129
b1000 ,
b1000 9"
b1000 :"
b11111111 5
b11111111 g
b11111111 &"
b11111111 4
b11111111 f
b11111111 p
b11111111 0
b11111111 o
b11111111 |
b11111111 /"
b11111111 1
b11111111 y
b11111111 z
b11111111 ""
b11111111 2
b11111111 ]
b11111111 v
b11111111 w
b11111111 3
b11111111 `
b11111111 s
b11111111 t
b11111111 6
b11111111 Z
b11111111 d
b11111111 q
b10 K
b10 e
b10 8"
1H
b1 E
b1 '"
1Q
0X
#130
b1 9
b1 ("
b1 0"
b1 4"
0#
#131
1&
1*
0+
b100100 A
b100100 h
b100100 l
b100100 ~
b0 @
b0 )"
b0 2"
#135
b100100 B
b100100 m
b100100 }
b100100 C
b100100 j
b100100 k
b100000 ;
b100000 i
b100000 ."
1#
#136
b100100 "
b100100 (
b100100 ?
b100100 !"
b100100 -"
#137
b101000 A
b101000 h
b101000 l
b101000 ~
#138
b1 )
b1 3"
b1 J
b0 /
b0 5"
b0 :
b10000000001101001 !
b10000000001101001 %
#139
b110100100 ,
b110100100 9"
b110100100 :"
b1 4
b1 f
b1 p
b1 0
b1 o
b1 |
b1 /"
b1 1
b1 y
b1 z
b1 ""
b1 2
b1 ]
b1 v
b1 w
b1 3
b1 `
b1 s
b1 t
0&
b1101001 5
b1101001 g
b1101001 &"
b1 6
b1 Z
b1 d
b1 q
0H
b1101001 K
b1101001 e
b1101001 8"
b0 E
b0 '"
0R
0Q
1X
#140
0*
1+
b1101001 @
b1101001 )"
b1101001 2"
b0 9
b0 ("
b0 0"
b0 4"
0#
#141
b111000100 A
b111000100 h
b111000100 l
b111000100 ~
#145
b101000 B
b101000 m
b101000 }
b101000 C
b101000 j
b101000 k
b101000 ;
b101000 i
b101000 ."
1#
#146
b101000 "
b101000 (
b101000 ?
b101000 !"
b101000 -"
#147
b111001100 A
b111001100 h
b111001100 l
b111001100 ~
#148
b100 )
b100 3"
b100 J
b1000000000000000001 !
b1000000000000000001 %
#149
b100 ,
b100 9"
b100 :"
b1101001 4
b1101001 f
b1101001 p
b1101001 0
b1101001 o
b1101001 |
b1101001 /"
b1101001 1
b1101001 y
b1101001 z
b1101001 ""
b1101001 2
b1101001 ]
b1101001 v
b1101001 w
b1101001 3
b1101001 `
b1101001 s
b1101001 t
b1 5
b1 g
b1 &"
b1101001 6
b1101001 Z
b1101001 d
b1101001 q
b1 K
b1 e
b1 8"
b10010111 7
b10010111 b
b10010111 *"
b1101001 8
b1101001 c
b1101001 +"
b1101001 6"
#150
b1 @
b1 )"
b1 2"
0#
#151
b101100 A
b101100 h
b101100 l
b101100 ~
#155
b101100 B
b101100 m
b101100 }
b101100 C
b101100 j
b101100 k
b101100 ;
b101100 i
b101100 ."
1#
#156
b101100 "
b101100 (
b101100 ?
b101100 !"
b101100 -"
#157
b110000 A
b110000 h
b110000 l
b110000 ~
#158
b10 )
b10 3"
b10 J
b101 .
b101 7"
b100000000000000101 !
b100000000000000101 %
#159
b10100 ,
b10100 9"
b10100 :"
b101 5
b101 g
b101 &"
b101 K
b101 e
b101 8"
#160
b1000 4
b1000 f
b1000 p
b1000 0
b1000 o
b1000 |
b1000 /"
b1000 1
b1000 y
b1000 z
b1000 ""
b1000 2
b1000 ]
b1000 v
b1000 w
b1000 3
b1000 `
b1000 s
b1000 t
b1000 6
b1000 Z
b1000 d
b1000 q
b101 @
b101 )"
b101 2"
b11111000 7
b11111000 b
b11111000 *"
b1000 8
b1000 c
b1000 +"
b1000 6"
0#
#161
b1000000 A
b1000000 h
b1000000 l
b1000000 ~
#165
b110000 B
b110000 m
b110000 }
b110000 C
b110000 j
b110000 k
b110000 ;
b110000 i
b110000 ."
1#
#166
b110000 "
b110000 (
b110000 ?
b110000 !"
b110000 -"
#167
b1000100 A
b1000100 h
b1000100 l
b1000100 ~
#168
b11 )
b11 3"
b11 J
b11 .
b11 7"
b110000000000000011 !
b110000000000000011 %
#169
b1100 ,
b1100 9"
b1100 :"
b11 5
b11 g
b11 &"
b11 K
b11 e
b11 8"
#170
b11 4
b11 f
b11 p
b11 0
b11 o
b11 |
b11 /"
b11 1
b11 y
b11 z
b11 ""
b11 2
b11 ]
b11 v
b11 w
b11 3
b11 `
b11 s
b11 t
b11 6
b11 Z
b11 d
b11 q
b11 @
b11 )"
b11 2"
b11111101 7
b11111101 b
b11111101 *"
b11 8
b11 c
b11 +"
b11 6"
0#
#171
b111100 A
b111100 h
b111100 l
b111100 ~
#175
b110100 B
b110100 m
b110100 }
b110100 C
b110100 j
b110100 k
b110100 ;
b110100 i
b110100 ."
1#
#176
b110100 "
b110100 (
b110100 ?
b110100 !"
b110100 -"
#177
b1000000 A
b1000000 h
b1000000 l
b1000000 ~
#178
b0 )
b0 3"
b0 J
b11 !
b11 %
#180
0#
#185
b111000 B
b111000 m
b111000 }
b111000 C
b111000 j
b111000 k
b111000 ;
b111000 i
b111000 ."
1#
#186
b111000 "
b111000 (
b111000 ?
b111000 !"
b111000 -"
#187
b1000100 A
b1000100 h
b1000100 l
b1000100 ~
#188
b100 )
b100 3"
b100 J
b1 .
b1 7"
b10 /
b10 5"
b1000 :
b1000000001000000001000000001 !
b1000000001000000001000000001 %
#189
b0 ,
b0 9"
b0 :"
b0 5
b0 g
b0 &"
b0 4
b0 f
b0 p
1T
1S
b0 K
b0 e
b0 8"
1R
#190
1*
0+
b1101001 0
b1101001 o
b1101001 |
b1101001 /"
b1101001 1
b1101001 y
b1101001 z
b1101001 ""
b1101001 2
b1101001 ]
b1101001 v
b1101001 w
b1101001 3
b1101001 `
b1101001 s
b1101001 t
b1101001 6
b1101001 Z
b1101001 d
b1101001 q
b0 @
b0 )"
b0 2"
b10010111 7
b10010111 b
b10010111 *"
b1101001 8
b1101001 c
b1101001 +"
b1101001 6"
b101 9
b101 ("
b101 0"
b101 4"
0#
#191
b1101 5
b1101 g
b1101 &"
b1101 4
b1101 f
b1101 p
b111000 A
b111000 h
b111000 l
b111000 ~
b1101 <
b1101 n
b1101 1"
#192
0*
1+
b1101 @
b1101 )"
b1101 2"
#195
b111100 B
b111100 m
b111100 }
b111100 C
b111100 j
b111100 k
b111100 ;
b111100 i
b111100 ."
1#
#196
b111100 "
b111100 (
b111100 ?
b111100 !"
b111100 -"
#197
b111100 A
b111100 h
b111100 l
b111100 ~
#198
b1100 :
b1100000001000000001000000001 !
b1100000001000000001000000001 %
#199
b0 5
b0 g
b0 &"
b0 0
b0 o
b0 |
b0 /"
b0 4
b0 f
b0 p
b0 <
b0 n
b0 1"
bz010 $"
b0 1
b0 y
b0 z
b0 ""
0T
0S
b10 W
b10 Y
b10 \
b10 _
b10 #"
1M
1O
#200
1*
0+
b10100100 5
b10100100 g
b10100100 &"
b10100100 4
b10100100 f
b10100100 p
b10100100 0
b10100100 o
b10100100 |
b10100100 /"
b10100100 1
b10100100 y
b10100100 z
b10100100 ""
b0 @
b0 )"
b0 2"
b10100100 >
b10100100 ^
b10100100 x
0#
#201
0*
1+
b10100100 @
b10100100 )"
b10100100 2"
#205
b1000000 B
b1000000 m
b1000000 }
b1000000 C
b1000000 j
b1000000 k
b1000000 ;
b1000000 i
b1000000 ."
1#
#206
b1000000 "
b1000000 (
b1000000 ?
b1000000 !"
b1000000 -"
#207
b1000000 A
b1000000 h
b1000000 l
b1000000 ~
#208
b1011 :
b1011000001000000001000000001 !
b1011000001000000001000000001 %
#209
b0 5
b0 g
b0 &"
b0 4
b0 f
b0 p
b0 0
b0 o
b0 |
b0 /"
b0 >
b0 ^
b0 x
b0 1
b0 y
b0 z
b0 ""
b0 2
b0 ]
b0 v
b0 w
0M
0O
1N
1P
#210
1*
0+
b11010 5
b11010 g
b11010 &"
b11010 4
b11010 f
b11010 p
b11010 0
b11010 o
b11010 |
b11010 /"
b11010 1
b11010 y
b11010 z
b11010 ""
b11010 2
b11010 ]
b11010 v
b11010 w
b0 @
b0 )"
b0 2"
b11010 =
b11010 a
b11010 u
0#
#211
0*
1+
b11010 @
b11010 )"
b11010 2"
#215
b1000100 B
b1000100 m
b1000100 }
b1000100 C
b1000100 j
b1000100 k
b1000100 ;
b1000100 i
b1000100 ."
1#
#216
b1000100 "
b1000100 (
b1000100 ?
b1000100 !"
b1000100 -"
#217
b1000100 A
b1000100 h
b1000100 l
b1000100 ~
#218
b1010 :
b1010000001000000001000000001 !
b1010000001000000001000000001 %
#219
b0 5
b0 g
b0 &"
b0 4
b0 f
b0 p
b0 0
b0 o
b0 |
b0 /"
b0 1
b0 y
b0 z
b0 ""
b0 =
b0 a
b0 u
b0 2
b0 ]
b0 v
b0 w
b0 3
b0 `
b0 s
b0 t
0N
0P
1F
1G
#220
1*
0+
b11010 5
b11010 g
b11010 &"
b11010 4
b11010 f
b11010 p
b11010 0
b11010 o
b11010 |
b11010 /"
b11010 1
b11010 y
b11010 z
b11010 ""
b11010 2
b11010 ]
b11010 v
b11010 w
b11010 3
b11010 `
b11010 s
b11010 t
b0 @
b0 )"
b0 2"
b11010 D
b11010 [
b11010 r
0#
#221
0*
1+
b11010 @
b11010 )"
b11010 2"
#225
b1001000 B
b1001000 m
b1001000 }
b1001000 C
b1001000 j
b1001000 k
b1001000 ;
b1001000 i
b1001000 ."
1#
#226
b1001000 "
b1001000 (
b1001000 ?
b1001000 !"
b1001000 -"
#227
b1001000 A
b1001000 h
b1001000 l
b1001000 ~
#228
b1101 :
b1101000001000000001000000001 !
b1101000001000000001000000001 %
