Building a Simple Processor/Part 4 – Flow Control Instructions/cpu_wavedata.vcd
$date
	Tue Jun  2 21:39:47 2020
$end
$version
	Icarus Verilog
$end
$timescale
	1s
$end
$scope module test $end
$var wire 32 ! inst [31:0] $end
$var wire 32 " PC [31:0] $end
$var reg 1 # clk $end
$var reg 1 $ reset $end
$scope module mycpu $end
$var wire 1 # CLK $end
$var wire 32 % INSTRUCTION [31:0] $end
$var wire 1 & MUX3_SEL $end
$var wire 32 ' PC [31:0] $end
$var wire 1 $ RESET $end
$var wire 3 ( WRITEREG [2:0] $end
$var wire 1 ) zero $end
$var wire 32 * SinEx [31:0] $end
$var wire 3 + READREG2 [2:0] $end
$var wire 3 , READREG1 [2:0] $end
$var wire 8 - OUT5 [7:0] $end
$var wire 8 . OUT4 [7:0] $end
$var wire 8 / OUT3 [7:0] $end
$var wire 8 0 OUT2 [7:0] $end
$var wire 8 1 OUT1 [7:0] $end
$var wire 3 2 OP_CODE [2:0] $end
$var wire 32 3 NEXT [31:0] $end
$var wire 32 4 J_out [31:0] $end
$var wire 8 5 IN [7:0] $end
$var wire 32 6 Branch [31:0] $end
$var wire 32 7 B_out [31:0] $end
$var reg 3 8 ALUOP [2:0] $end
$var reg 1 9 BEQ $end
$var reg 3 : DESTINATION [2:0] $end
$var reg 8 ; IM_VAL [7:0] $end
$var reg 1 < JUMP $end
$var reg 1 = MUX1_SEL $end
$var reg 1 > MUX2_SEL $end
$var reg 1 ? WRITEENABLE $end
$scope module cpu_MUX1 $end
$var wire 1 = control $end
$var wire 8 @ b [7:0] $end
$var wire 8 A a [7:0] $end
$var reg 8 B out [7:0] $end
$upscope $end
$scope module cpu_MUX2 $end
$var wire 8 C a [7:0] $end
$var wire 8 D b [7:0] $end
$var wire 1 > control $end
$var reg 8 E out [7:0] $end
$upscope $end
$scope module cpu_MUX32_1 $end
$var wire 32 F b [31:0] $end
$var wire 1 # clk $end
$var wire 1 & control $end
$var wire 1 $ reset $end
$var wire 32 G a [31:0] $end
$var reg 32 H out [31:0] $end
$upscope $end
$scope module cpu_PC_MUX32 $end
$var wire 1 # clk $end
$var wire 1 < control $end
$var wire 32 I input1 [31:0] $end
$var wire 32 J input2 [31:0] $end
$var wire 1 $ reset $end
$var reg 32 K out [31:0] $end
$upscope $end
$scope module cpu_alu $end
$var wire 8 L DATA2 [7:0] $end
$var wire 3 M SELECT [2:0] $end
$var wire 1 ) ZERO $end
$var wire 8 N DATA1 [7:0] $end
$var reg 8 O RESULT [7:0] $end
$upscope $end
$scope module cpu_compliment $end
$var wire 8 P out [7:0] $end
$var wire 8 Q in [7:0] $end
$var reg 8 R comp [7:0] $end
$upscope $end
$scope module cpu_counter $end
$var wire 1 # clk $end
$var wire 32 S in_pc [31:0] $end
$var wire 1 $ reset $end
$var reg 32 T out_pc [31:0] $end
$upscope $end
$scope module cpu_reg_file $end
$var wire 1 # CLK $end
$var wire 8 U IN [7:0] $end
$var wire 3 V INADDRESS [2:0] $end
$var wire 8 W OUT1 [7:0] $end
$var wire 3 X OUT1ADDRESS [2:0] $end
$var wire 8 Y OUT2 [7:0] $end
$var wire 3 Z OUT2ADDRESS [2:0] $end
$var wire 1 $ RESET $end
$var wire 1 ? WRITE $end
$upscope $end
$scope module cpu_sing_extend_shift $end
$var wire 8 [ IN [7:0] $end
$var wire 32 \ OUT [31:0] $end
$var reg 32 ] result [31:0] $end
$upscope $end
$upscope $end
$upscope $end
$enddefinitions $end
#0
$dumpvars
bx ]
bx \
bx [
bx Z
bx Y
bx X
bx W
bx V
bx U
bx T
bx S
b11111111 R
bx Q
bx P
bx O
bx N
bx M
bx L
bx K
bx J
bx I
bx H
bx G
bx F
bx E
bx D
bx C
bx B
bx A
bx @
x?
x>
x=
x<
bx ;
bx :
x9
bx 8
bx 7
bx 6
bx 5
bx 4
bx 3
bx 2
bx 1
bx 0
bx /
bx .
bx -
bx ,
bx +
bx *
x)
bx (
bx '
x&
bx %
0$
0#
bx "
bx !
$end
#5
1#
#7
b0 7
b0 H
b0 I
1$
#8
b0 "
b0 '
b0 4
b0 K
b0 S
#10
b1 (
b1 V
b1 :
b11 +
b11 Z
b0 ,
b0 X
b0 2
b10000000000000011 !
b10000000000000011 %
0#
#11
b1100 *
b1100 \
b1100 ]
0&
b11 -
b11 E
b11 L
0<
09
b11 ;
b11 C
b11 [
b0 8
b0 M
0>
1?
#12
0)
b11 5
b11 O
b11 U
b0 /
b0 @
b0 P
b0 0
b0 A
b0 Q
b0 Y
b0 1
b0 N
b0 W
0$
#15
b100 7
b100 H
b100 I
b100 3
b100 G
b100 T
1#
#16
b100 "
b100 '
b100 4
b100 K
b100 S
#17
b10000 6
b10000 F
b10000 J
#18
b100 (
b100 V
b100 :
b1 +
b1 Z
b1000000000000000001 !
b1000000000000000001 %
#19
b100 *
b100 \
b100 ]
b1 -
b1 E
b1 L
b1 ;
b1 C
b1 [
#20
b1 5
b1 O
b1 U
b11111101 /
b11111101 @
b11111101 P
b11 0
b11 A
b11 Q
b11 Y
0#
#21
b1000 6
b1000 F
b1000 J
#25
b1000 7
b1000 H
b1000 I
b1000 3
b1000 G
b1000 T
1#
#26
b1000 "
b1000 '
b1000 4
b1000 K
b1000 S
#27
b1100 6
b1100 F
b1100 J
#28
b10 (
b10 V
b10 :
b101 +
b101 Z
b100000000000000101 !
b100000000000000101 %
#29
b10100 *
b10100 \
b10100 ]
b101 -
b101 E
b101 L
b101 ;
b101 C
b101 [
#30
b101 5
b101 O
b101 U
b0 /
b0 @
b0 P
b0 0
b0 A
b0 Q
b0 Y
0#
#31
b11100 6
b11100 F
b11100 J
#35
b1100 7
b1100 H
b1100 I
b1100 3
b1100 G
b1100 T
1#
#36
b1100 "
b1100 '
b1100 4
b1100 K
b1100 S
#37
b100000 6
b100000 F
b100000 J
#38
b11 (
b11 V
b11 :
b11 +
b11 Z
b110000000000000011 !
b110000000000000011 %
#39
b1100 *
b1100 \
b1100 ]
b11 -
b11 E
b11 L
b11 ;
b11 C
b11 [
#40
b11 5
b11 O
b11 U
0#
#41
b11000 6
b11000 F
b11000 J
#45
b10000 7
b10000 H
b10000 I
b10000 3
b10000 G
b10000 T
1#
#46
b10000 "
b10000 '
b10000 4
b10000 K
b10000 S
#47
b11100 6
b11100 F
b11100 J
#48
b101 (
b101 V
b101 :
b10 ,
b10 X
b10 2
b10000001010000001000000011 !
b10000001010000001000000011 %
#49
b0 *
b0 \
b0 ]
b11 .
b11 B
b11 D
b0 ;
b0 C
b0 [
b1 8
b1 M
1>
0=
b11111101 /
b11111101 @
b11111101 P
b11 0
b11 A
b11 Q
b11 Y
#50
b101 1
b101 N
b101 W
0#
#51
b10000 6
b10000 F
b10000 J
b1000 5
b1000 O
b1000 U
#55
b10100 7
b10100 H
b10100 I
b10100 3
b10100 G
b10100 T
1#
#56
b10100 "
b10100 '
b10100 4
b10100 K
b10100 S
#57
b10100 6
b10100 F
b10100 J
#58
b1 (
b1 V
b1 :
b100 +
b100 Z
b1 ,
b1 X
b11 2
b11000000010000000100000100 !
b11000000010000000100000100 %
#59
b11111101 -
b11111101 E
b11111101 L
b11111101 .
b11111101 B
b11111101 D
1=
#60
b11111111 -
b11111111 E
b11111111 L
b11111111 .
b11111111 B
b11111111 D
b11111111 /
b11111111 @
b11111111 P
b1 0
b1 A
b1 Q
b1 Y
b11 1
b11 N
b11 W
0#
#61
0)
b10 5
b10 O
b10 U
#65
b11000 7
b11000 H
b11000 I
b11000 3
b11000 G
b11000 T
1#
#66
b11000 "
b11000 '
b11000 4
b11000 K
b11000 S
#67
b11000 6
b11000 F
b11000 J
#68
b110 (
b110 V
b110 :
b1 +
b1 Z
b0 ,
b0 X
b1 2
b1000001100000000000000001 !
b1000001100000000000000001 %
#69
b1 -
b1 E
b1 L
b1 .
b1 B
b1 D
b0 8
b0 M
0=
#70
b10 -
b10 E
b10 L
b10 .
b10 B
b10 D
b1 5
b1 O
b1 U
b11111110 /
b11111110 @
b11111110 P
b10 0
b10 A
b10 Q
b10 Y
b0 1
b0 N
b0 W
0#
#71
b10 5
b10 O
b10 U
#75
b11100 7
b11100 H
b11100 I
b11100 3
b11100 G
b11100 T
1#
#76
b11100 "
b11100 '
b11100 4
b11100 K
b11100 S
#77
b11100 6
b11100 F
b11100 J
#78
b10 (
b10 V
b10 :
b100 ,
b100 X
b111 2
b111000000100000010000000001 !
b111000000100000010000000001 %
#79
b1000 *
b1000 \
b1000 ]
b11111110 -
b11111110 E
b11111110 L
b11111110 .
b11111110 B
b11111110 D
b10 ;
b10 C
b10 [
19
b1 8
b1 M
1=
0?
#80
b1 1
b1 N
b1 W
0#
#81
b100100 6
b100100 F
b100100 J
b11111111 5
b11111111 O
b11111111 U
#85
b100000 7
b100000 H
b100000 I
b100000 3
b100000 G
b100000 T
1#
#86
b100000 "
b100000 '
b100000 4
b100000 K
b100000 S
#87
b101000 6
b101000 F
b101000 J
#88
b100 (
b100 V
b100 :
b0 +
b0 Z
b0 ,
b0 X
b110 2
b110111111000000000000000000 !
b110111111000000000000000000 %
#89
b11111111111111111111111111110000 *
b11111111111111111111111111110000 \
b11111111111111111111111111110000 ]
b11111100 ;
b11111100 C
b11111100 [
1<
09
#90
b0 -
b0 E
b0 L
b0 .
b0 B
b0 D
b0 /
b0 @
b0 P
b0 0
b0 A
b0 Q
b0 Y
b0 1
b0 N
b0 W
0#
#91
b10000 6
b10000 F
b10000 J
#92
1)
b0 5
b0 O
b0 U
#95
b100100 7
b100100 H
b100100 I
b100100 3
b100100 G
b100100 T
1#
#96
b10000 "
b10000 '
b10000 4
b10000 K
b10000 S
#97
b10100 6
b10100 F
b10100 J
#98
b101 (
b101 V
b101 :
b11 +
b11 Z
b10 ,
b10 X
b10 2
b10000001010000001000000011 !
b10000001010000001000000011 %
#99
b0 *
b0 \
b0 ]
0<
b0 ;
b0 C
b0 [
0=
1?
#100
b11 -
b11 E
b11 L
b11 .
b11 B
b11 D
b11111101 /
b11111101 @
b11111101 P
b11 0
b11 A
b11 Q
b11 Y
b101 1
b101 N
b101 W
0#
#101
b100100 6
b100100 F
b100100 J
#102
0)
b1000 5
b1000 O
b1000 U
#105
b10100 7
b10100 H
b10100 I
b10100 3
b10100 G
b10100 T
1#
#106
b10100 "
b10100 '
b10100 4
b10100 K
b10100 S
#107
b10100 6
b10100 F
b10100 J
#108
b1 (
b1 V
b1 :
b100 +
b100 Z
b1 ,
b1 X
b11 2
b11000000010000000100000100 !
b11000000010000000100000100 %
#109
b11111101 -
b11111101 E
b11111101 L
b11111101 .
b11111101 B
b11111101 D
1=
#110
b11111111 -
b11111111 E
b11111111 L
b11111111 .
b11111111 B
b11111111 D
b11111111 /
b11111111 @
b11111111 P
b1 0
b1 A
b1 Q
b1 Y
b10 1
b10 N
b10 W
0#
#111
0)
b1 5
b1 O
b1 U
#115
b11000 7
b11000 H
b11000 I
b11000 3
b11000 G
b11000 T
1#
#116
b11000 "
b11000 '
b11000 4
b11000 K
b11000 S
#117
b11000 6
b11000 F
b11000 J
#118
b110 (
b110 V
b110 :
b1 +
b1 Z
b0 ,
b0 X
b1 2
b1000001100000000000000001 !
b1000001100000000000000001 %
#119
b1 -
b1 E
b1 L
b1 .
b1 B
b1 D
b0 8
b0 M
0=
#120
b0 1
b0 N
b0 W
0#
#125
b11100 7
b11100 H
b11100 I
b11100 3
b11100 G
b11100 T
1#
#126
b11100 "
b11100 '
b11100 4
b11100 K
b11100 S
#127
b11100 6
b11100 F
b11100 J
#128
b10 (
b10 V
b10 :
b100 ,
b100 X
b111 2
b111000000100000010000000001 !
b111000000100000010000000001 %
#129
b1000 *
b1000 \
b1000 ]
b11111111 -
b11111111 E
b11111111 L
b11111111 .
b11111111 B
b11111111 D
b10 ;
b10 C
b10 [
19
b1 8
b1 M
1=
0?
#130
b1 1
b1 N
b1 W
0#
#131
1&
1)
b100100 6
b100100 F
b100100 J
b0 5
b0 O
b0 U
#135
b100100 7
b100100 H
b100100 I
b100000 3
b100000 G
b100000 T
1#
#136
b100100 "
b100100 '
b100100 4
b100100 K
b100100 S
#137
b101000 6
b101000 F
b101000 J
#138
b1 (
b1 V
b1 :
b11 +
b11 Z
b0 ,
b0 X
b0 2
b10000000000000011 !
b10000000000000011 %
#139
b1100 *
b1100 \
b1100 ]
0&
b11 -
b11 E
b11 L
09
b11 ;
b11 C
b11 [
b0 8
b0 M
0>
1?
#140
0)
b11111101 .
b11111101 B
b11111101 D
b11 5
b11 O
b11 U
b11111101 /
b11111101 @
b11111101 P
b11 0
b11 A
b11 Q
b11 Y
b0 1
b0 N
b0 W
0#
#141
b101100 6
b101100 F
b101100 J
#145
b101000 7
b101000 H
b101000 I
b101000 3
b101000 G
b101000 T
1#
#146
b101000 "
b101000 '
b101000 4
b101000 K
b101000 S
#147
b110100 6
b110100 F
b110100 J
#148
b100 (
b100 V
b100 :
b1 +
b1 Z
b1000000000000000001 !
b1000000000000000001 %
#149
b100 *
b100 \
b100 ]
b1 -
b1 E
b1 L
b1 ;
b1 C
b1 [
#150
b1 5
b1 O
b1 U
0#
#151
b101100 6
b101100 F
b101100 J
#155
b101100 7
b101100 H
b101100 I
b101100 3
b101100 G
b101100 T
1#
#156
b101100 "
b101100 '
b101100 4
b101100 K
b101100 S
#157
b110000 6
b110000 F
b110000 J
#158
b10 (
b10 V
b10 :
b101 +
b101 Z
b100000000000000101 !
b100000000000000101 %
#159
b10100 *
b10100 \
b10100 ]
b101 -
b101 E
b101 L
b101 ;
b101 C
b101 [
#160
b11111000 .
b11111000 B
b11111000 D
b101 5
b101 O
b101 U
b11111000 /
b11111000 @
b11111000 P
b1000 0
b1000 A
b1000 Q
b1000 Y
0#
#161
b1000000 6
b1000000 F
b1000000 J
#165
b110000 7
b110000 H
b110000 I
b110000 3
b110000 G
b110000 T
1#
#166
b110000 "
b110000 '
b110000 4
b110000 K
b110000 S
#167
b1000100 6
b1000100 F
b1000100 J
#168
b11 (
b11 V
b11 :
b11 +
b11 Z
b110000000000000011 !
b110000000000000011 %
#169
b1100 *
b1100 \
b1100 ]
b11 -
b11 E
b11 L
b11 ;
b11 C
b11 [
#170
b11111101 .
b11111101 B
b11111101 D
b11 5
b11 O
b11 U
b11111101 /
b11111101 @
b11111101 P
b11 0
b11 A
b11 Q
b11 Y
0#
#171
b111100 6
b111100 F
b111100 J
#175
b110100 7
b110100 H
b110100 I
b110100 3
b110100 G
b110100 T
1#
#176
b110100 "
b110100 '
b110100 4
b110100 K
b110100 S
#177
b1000000 6
b1000000 F
b1000000 J
#178
bx (
bx V
bx :
bx +
bx Z
bx ,
bx X
bx 2
bx !
bx %
#180
bx .
bx B
bx D
bx /
bx @
bx P
bx 0
bx A
bx Q
bx Y
bx 1
bx N
bx W
0#
#185
b111000 7
b111000 H
b111000 I
b111000 3
b111000 G
b111000 T
1#
#186
b111000 "
b111000 '
b111000 4
b111000 K
b111000 S
#187
b1000100 6
b1000100 F
b1000100 J
#190
0#
#195
b111100 7
b111100 H
b111100 I
b111100 3
b111100 G
b111100 T
1#
#196
b111100 "
b111100 '
b111100 4
b111100 K
b111100 S
#197
b1001000 6
b1001000 F
b1001000 J
#200
0#
#205
b1000000 7
b1000000 H
b1000000 I
b1000000 3
b1000000 G
b1000000 T
1#
#206
b1000000 "
b1000000 '
b1000000 4
b1000000 K
b1000000 S
#207
b1001100 6
b1001100 F
b1001100 J
