Building a Memory Hierarchy/Part 1 - Data Memory/cpu_wavedata.vcd
$date
	Wed Jun  3 20:26:58 2020
$end
$version
	Icarus Verilog
$end
$timescale
	1s
$end
$scope module test $end
$var wire 8 ! writedata [7:0] $end
$var wire 1 " write $end
$var wire 8 # readdata [7:0] $end
$var wire 1 $ read $end
$var wire 32 % inst [31:0] $end
$var wire 1 & busywait $end
$var wire 8 ' address [7:0] $end
$var wire 32 ( PC [31:0] $end
$var reg 1 ) clk $end
$var reg 1 * reset $end
$scope module my_data_memory $end
$var wire 1 ) clock $end
$var wire 1 * reset $end
$var wire 8 + writedata [7:0] $end
$var wire 1 " write $end
$var wire 1 $ read $end
$var wire 8 , address [7:0] $end
$var reg 1 & busywait $end
$var reg 1 - readaccess $end
$var reg 8 . readdata [7:0] $end
$var reg 1 / writeaccess $end
$var integer 32 0 i [31:0] $end
$upscope $end
$scope module mycpu $end
$var wire 1 ) CLK $end
$var wire 32 1 INSTRUCTION [31:0] $end
$var wire 1 2 MUX3_SEL $end
$var wire 1 3 MUX4_SEL $end
$var wire 32 4 PC [31:0] $end
$var wire 1 * RESET $end
$var wire 3 5 WRITEREG [2:0] $end
$var wire 8 6 address [7:0] $end
$var wire 1 & busywait $end
$var wire 1 $ read $end
$var wire 8 7 readdata [7:0] $end
$var wire 1 " write $end
$var wire 8 8 writedata [7:0] $end
$var wire 1 9 zero $end
$var wire 1 : one $end
$var wire 32 ; SinEx [31:0] $end
$var wire 8 < RR_OUT [7:0] $end
$var wire 3 = READREG2 [2:0] $end
$var wire 3 > READREG1 [2:0] $end
$var wire 8 ? OUT_s4 [7:0] $end
$var wire 8 @ OUT_s3 [7:0] $end
$var wire 8 A OUT_s2 [7:0] $end
$var wire 8 B OUT_s1 [7:0] $end
$var wire 8 C OUT_M1 [7:0] $end
$var wire 8 D OUT5 [7:0] $end
$var wire 8 E OUT4 [7:0] $end
$var wire 8 F OUT3 [7:0] $end
$var wire 8 G OUT2 [7:0] $end
$var wire 8 H OUT1 [7:0] $end
$var wire 5 I OP_CODE [4:0] $end
$var wire 32 J NEXT [31:0] $end
$var wire 8 K Mult_out [7:0] $end
$var wire 8 L LR_OUT [7:0] $end
$var wire 8 M LL_OUT [7:0] $end
$var wire 32 N J_out [31:0] $end
$var wire 8 O IN [7:0] $end
$var wire 32 P Branch [31:0] $end
$var wire 32 Q Bne_out [31:0] $end
$var wire 32 R Beq_out [31:0] $end
$var wire 8 S AR_OUT [7:0] $end
$var wire 8 T ALU_OUT [7:0] $end
$var reg 1 U ALUM_selc $end
$var reg 3 V ALUOP [2:0] $end
$var reg 1 W AR_EANABLE $end
$var reg 1 X A_right $end
$var reg 1 Y BEQ $end
$var reg 1 Z BNE $end
$var reg 3 [ DESTINATION [2:0] $end
$var reg 8 \ IM_VAL [7:0] $end
$var reg 1 ] JUMP $end
$var reg 1 ^ LL_EANABLE $end
$var reg 1 _ LR_EANABLE $end
$var reg 1 ` L_left $end
$var reg 1 a L_right $end
$var reg 1 b MUX1_SEL $end
$var reg 1 c MUX2_SEL $end
$var reg 1 d Mread $end
$var reg 1 e Mult_EANABLE $end
$var reg 1 f Mult_select $end
$var reg 1 g Mwrite $end
$var reg 1 h RR_EANABLE $end
$var reg 1 i R_right $end
$var reg 8 j S_IM_VAL [7:0] $end
$var reg 1 k WRITEENABLE $end
$scope module cpu_ALUMUX $end
$var wire 8 l b [7:0] $end
$var wire 1 U control $end
$var wire 8 m a [7:0] $end
$var reg 8 n out [7:0] $end
$upscope $end
$scope module cpu_Arith_right $end
$var wire 1 W EANABLE $end
$var wire 8 o SHIFT [7:0] $end
$var wire 8 p IN_DATA [7:0] $end
$var reg 8 q OUT_DATA [7:0] $end
$upscope $end
$scope module cpu_Logic_left $end
$var wire 1 ^ EANABLE $end
$var wire 8 r SHIFT [7:0] $end
$var wire 8 s IN_DATA [7:0] $end
$var reg 8 t OUT_DATA [7:0] $end
$upscope $end
$scope module cpu_Logic_right $end
$var wire 1 _ EANABLE $end
$var wire 8 u SHIFT [7:0] $end
$var wire 8 v IN_DATA [7:0] $end
$var reg 8 w OUT_DATA [7:0] $end
$upscope $end
$scope module cpu_MUX1 $end
$var wire 1 b control $end
$var wire 8 x b [7:0] $end
$var wire 8 y a [7:0] $end
$var reg 8 z out [7:0] $end
$upscope $end
$scope module cpu_MUX2 $end
$var wire 8 { a [7:0] $end
$var wire 1 c control $end
$var wire 8 | b [7:0] $end
$var reg 8 } out [7:0] $end
$upscope $end
$scope module cpu_MUX32_1 $end
$var wire 32 ~ b [31:0] $end
$var wire 1 ) clk $end
$var wire 1 2 control $end
$var wire 1 * reset $end
$var wire 32 !" a [31:0] $end
$var reg 32 "" out [31:0] $end
$upscope $end
$scope module cpu_MUX32_2 $end
$var wire 32 #" a [31:0] $end
$var wire 32 $" b [31:0] $end
$var wire 1 ) clk $end
$var wire 1 3 control $end
$var wire 1 * reset $end
$var reg 32 %" out [31:0] $end
$upscope $end
$scope module cpu_MUX_M1 $end
$var wire 1 f control $end
$var wire 8 &" b [7:0] $end
$var wire 8 '" a [7:0] $end
$var reg 8 (" out [7:0] $end
$upscope $end
$scope module cpu_MUX_s1 $end
$var wire 8 )" a [7:0] $end
$var wire 8 *" b [7:0] $end
$var wire 1 X control $end
$var reg 8 +" out [7:0] $end
$upscope $end
$scope module cpu_MUX_s2 $end
$var wire 8 ," a [7:0] $end
$var wire 8 -" b [7:0] $end
$var wire 1 a control $end
$var reg 8 ." out [7:0] $end
$upscope $end
$scope module cpu_MUX_s3 $end
$var wire 8 /" a [7:0] $end
$var wire 8 0" b [7:0] $end
$var wire 1 ` control $end
$var reg 8 1" out [7:0] $end
$upscope $end
$scope module cpu_MUX_s4 $end
$var wire 8 2" a [7:0] $end
$var wire 1 i control $end
$var wire 8 3" b [7:0] $end
$var reg 8 4" out [7:0] $end
$upscope $end
$scope module cpu_PC_MUX32 $end
$var wire 1 ) clk $end
$var wire 1 ] control $end
$var wire 32 5" input1 [31:0] $end
$var wire 32 6" input2 [31:0] $end
$var wire 1 * reset $end
$var reg 32 7" out [31:0] $end
$upscope $end
$scope module cpu_Rotate_right $end
$var wire 1 h EANABLE $end
$var wire 8 8" IN_DATA [7:0] $end
$var wire 8 9" SHIFT [7:0] $end
$var wire 8 :" point [7:0] $end
$var reg 8 ;" OUT_DATA [7:0] $end
$upscope $end
$scope module cpu_alu $end
$var wire 8 <" DATA2 [7:0] $end
$var wire 1 : ONE $end
$var wire 3 =" SELECT [2:0] $end
$var wire 1 9 ZERO $end
$var wire 8 >" DATA1 [7:0] $end
$var reg 8 ?" RESULT [7:0] $end
$upscope $end
$scope module cpu_compliment $end
$var wire 8 @" out [7:0] $end
$var wire 8 A" in [7:0] $end
$var reg 8 B" comp [7:0] $end
$upscope $end
$scope module cpu_counter $end
$var wire 1 & busywait $end
$var wire 1 ) clk $end
$var wire 32 C" in_pc [31:0] $end
$var wire 1 * reset $end
$var reg 32 D" out_pc [31:0] $end
$upscope $end
$scope module cpu_multipilication $end
$var wire 1 e EANABLE $end
$var wire 8 E" IN1 [7:0] $end
$var wire 8 F" IN2 [7:0] $end
$var reg 8 G" OUT_DATA [7:0] $end
$upscope $end
$scope module cpu_reg_file $end
$var wire 1 ) CLK $end
$var wire 8 H" IN [7:0] $end
$var wire 3 I" INADDRESS [2:0] $end
$var wire 8 J" OUT1 [7:0] $end
$var wire 3 K" OUT1ADDRESS [2:0] $end
$var wire 8 L" OUT2 [7:0] $end
$var wire 3 M" OUT2ADDRESS [2:0] $end
$var wire 1 * RESET $end
$var wire 1 k WRITE $end
$upscope $end
$scope module cpu_sing_extend_shift $end
$var wire 8 N" IN [7:0] $end
$var wire 32 O" OUT [31:0] $end
$var reg 32 P" result [31:0] $end
$upscope $end
$upscope $end
$upscope $end
$enddefinitions $end
#0
$dumpvars
bx P"
bx O"
bx N"
bx M"
bx L"
bx K"
bx J"
bx I"
bx H"
bx G"
bx F"
bx E"
bx D"
bx C"
b11111111 B"
bx A"
bx @"
bx ?"
bx >"
bx ="
bx <"
bx ;"
bzxxx :"
bx 9"
bx 8"
bx 7"
bx 6"
bx 5"
bx 4"
bx 3"
bx 2"
bx 1"
bx 0"
bx /"
bx ."
bx -"
bx ,"
bx +"
bx *"
bx )"
bx ("
bx '"
bx &"
bx %"
bx $"
bx #"
bx ""
bx !"
bx ~
bx }
bx |
bx {
bx z
bx y
bx x
bx w
bx v
bx u
bx t
bx s
bx r
bx q
bx p
bx o
bx n
bx m
bx l
xk
bx j
xi
xh
xg
xf
xe
xd
xc
xb
xa
x`
x_
x^
x]
bx \
bx [
xZ
xY
xX
xW
bx V
xU
bx T
bx S
bx R
bx Q
bx P
bx O
bx N
bx M
bx L
bx K
bx J
bx I
bx H
bx G
bx F
bx E
bx D
bx C
bx B
bx A
bx @
bx ?
bx >
bx =
bx <
bx ;
x:
x9
bx 8
bx 7
bx 6
bx 5
bx 4
x3
x2
bx 1
bx 0
x/
bx .
x-
bx ,
bx +
0*
0)
bx (
bx '
x&
bx %
x$
bx #
x"
bx !
$end
#4
1)
#7
0/
0-
0&
b100000000 0
b0 R
b0 ""
b0 #"
b0 Q
b0 %"
b0 5"
1*
#8
b0 (
b0 4
b0 N
b0 7"
b0 C"
0)
#10
0"
0g
0$
0d
b1 5
b1 I"
b1 [
b11 =
b11 M"
b0 >
b0 K"
b0 I
b10000000000000011 %
b10000000000000011 1
#11
b1100 ;
b1100 O"
b1100 P"
b0 K
b0 &"
b0 G"
bz000 :"
b0 <
b0 3"
b0 ;"
b0 M
b0 t
b0 0"
b0 L
b0 w
b0 -"
b0 S
b0 q
b0 *"
03
02
b11 D
b11 }
b11 <"
0U
0f
0e
b0 j
b0 o
b0 r
b0 u
b0 9"
0h
0i
0^
0`
0_
0a
0W
0X
0Z
0]
0Y
b11 \
b11 {
b11 N"
b0 V
b0 ="
0c
0b
1k
#12
09
1:
b0 C
b0 |
b0 ("
b0 ?
b0 '"
b0 4"
b0 E"
b0 @
b0 1"
b0 2"
b0 8"
b0 A
b0 s
b0 ."
b0 /"
b0 B
b0 v
b0 +"
b0 ,"
b100 Q
b100 %"
b100 5"
b11 T
b11 n
b11 H"
b0 E
b0 p
b0 z
b0 )"
b100 R
b100 ""
b100 #"
b100 J
b100 !"
b100 D"
b11 '
b11 ,
b11 6
b11 O
b11 m
b11 ?"
b0 G
b0 y
b0 A"
b0 L"
b0 !
b0 +
b0 8
b0 H
b0 >"
b0 F"
b0 J"
1)
0*
#13
b100 (
b100 4
b100 N
b100 7"
b100 C"
b0 F
b0 x
b0 @"
#14
b10000 P
b10000 ~
b10000 $"
b10000 6"
#15
b100 5
b100 I"
b100 [
b1 =
b1 M"
b1000000000000000001 %
b1000000000000000001 1
#16
b100 ;
b100 O"
b100 P"
b1 D
b1 }
b1 <"
b1 \
b1 {
b1 N"
0)
#17
b11 C
b11 |
b11 ("
b11 ?
b11 '"
b11 4"
b11 E"
b11 @
b11 1"
b11 2"
b11 8"
b11 A
b11 s
b11 ."
b11 /"
b11 B
b11 v
b11 +"
b11 ,"
b1 T
b1 n
b1 H"
b11 E
b11 p
b11 z
b11 )"
b1 '
b1 ,
b1 6
b1 O
b1 m
b1 ?"
b11 G
b11 y
b11 A"
b11 L"
#18
b11111101 F
b11111101 x
b11111101 @"
b1000 P
b1000 ~
b1000 $"
b1000 6"
#20
b1000 Q
b1000 %"
b1000 5"
b1000 R
b1000 ""
b1000 #"
b1000 J
b1000 !"
b1000 D"
1)
#21
b1000 (
b1000 4
b1000 N
b1000 7"
b1000 C"
#22
b1100 P
b1100 ~
b1100 $"
b1100 6"
#23
b10 5
b10 I"
b10 [
b101 =
b101 M"
b100000000000000101 %
b100000000000000101 1
#24
b10100 ;
b10100 O"
b10100 P"
b101 D
b101 }
b101 <"
b101 \
b101 {
b101 N"
0)
#25
b0 C
b0 |
b0 ("
b0 ?
b0 '"
b0 4"
b0 E"
b0 @
b0 1"
b0 2"
b0 8"
b0 A
b0 s
b0 ."
b0 /"
b0 B
b0 v
b0 +"
b0 ,"
b101 T
b101 n
b101 H"
b0 E
b0 p
b0 z
b0 )"
b101 '
b101 ,
b101 6
b101 O
b101 m
b101 ?"
b0 G
b0 y
b0 A"
b0 L"
#26
b0 F
b0 x
b0 @"
b11100 P
b11100 ~
b11100 $"
b11100 6"
#28
b1100 Q
b1100 %"
b1100 5"
b1100 R
b1100 ""
b1100 #"
b1100 J
b1100 !"
b1100 D"
1)
#29
b1100 (
b1100 4
b1100 N
b1100 7"
b1100 C"
#30
b100000 P
b100000 ~
b100000 $"
b100000 6"
#31
b11 5
b11 I"
b11 [
b11 =
b11 M"
b110000000000000011 %
b110000000000000011 1
#32
b1100 ;
b1100 O"
b1100 P"
b11 D
b11 }
b11 <"
b11 \
b11 {
b11 N"
0)
#33
b11 T
b11 n
b11 H"
b11 '
b11 ,
b11 6
b11 O
b11 m
b11 ?"
#34
b11000 P
b11000 ~
b11000 $"
b11000 6"
#36
b10000 Q
b10000 %"
b10000 5"
b10000 R
b10000 ""
b10000 #"
b10000 J
b10000 !"
b10000 D"
1)
#37
b10000 (
b10000 4
b10000 N
b10000 7"
b10000 C"
#38
b11100 P
b11100 ~
b11100 $"
b11100 6"
#39
b101 5
b101 I"
b101 [
b10 >
b10 K"
b10 I
b10000001010000001000000011 %
b10000001010000001000000011 1
#40
b0 ;
b0 O"
b0 P"
b11 C
b11 |
b11 ("
b11 ?
b11 '"
b11 4"
b11 E"
b11 @
b11 1"
b11 2"
b11 8"
b11 A
b11 s
b11 ."
b11 /"
b11 B
b11 v
b11 +"
b11 ,"
b11 D
b11 }
b11 <"
b11 E
b11 p
b11 z
b11 )"
b0 \
b0 {
b0 N"
b1 V
b1 ="
1c
b11 G
b11 y
b11 A"
b11 L"
0)
#41
b11111101 F
b11111101 x
b11111101 @"
b101 !
b101 +
b101 8
b101 H
b101 >"
b101 F"
b101 J"
#42
b1000 T
b1000 n
b1000 H"
b10000 P
b10000 ~
b10000 $"
b10000 6"
b1000 '
b1000 ,
b1000 6
b1000 O
b1000 m
b1000 ?"
#44
b10100 Q
b10100 %"
b10100 5"
b10100 R
b10100 ""
b10100 #"
b10100 J
b10100 !"
b10100 D"
1)
#45
b10100 (
b10100 4
b10100 N
b10100 7"
b10100 C"
#46
b10100 P
b10100 ~
b10100 $"
b10100 6"
#47
b1 5
b1 I"
b1 [
b100 =
b100 M"
b1 >
b1 K"
b11 I
b11000000010000000100000100 %
b11000000010000000100000100 1
#48
b11111101 D
b11111101 }
b11111101 <"
b11111101 C
b11111101 |
b11111101 ("
b11111101 ?
b11111101 '"
b11111101 4"
b11111101 E"
b11111101 @
b11111101 1"
b11111101 2"
b11111101 8"
b11111101 A
b11111101 s
b11111101 ."
b11111101 /"
b11111101 B
b11111101 v
b11111101 +"
b11111101 ,"
b11111101 E
b11111101 p
b11111101 z
b11111101 )"
1b
0)
#49
b1 G
b1 y
b1 A"
b1 L"
b11 !
b11 +
b11 8
b11 H
b11 >"
b11 F"
b11 J"
#50
b11111111 D
b11111111 }
b11111111 <"
19
b11111111 C
b11111111 |
b11111111 ("
0:
b11111111 ?
b11111111 '"
b11111111 4"
b11111111 E"
b11111111 @
b11111111 1"
b11111111 2"
b11111111 8"
b11111111 A
b11111111 s
b11111111 ."
b11111111 /"
b11111111 B
b11111111 v
b11111111 +"
b11111111 ,"
b11111111 E
b11111111 p
b11111111 z
b11111111 )"
b0 T
b0 n
b0 H"
b11111111 F
b11111111 x
b11111111 @"
b0 '
b0 ,
b0 6
b0 O
b0 m
b0 ?"
#52
09
1:
b11000 Q
b11000 %"
b11000 5"
b10 T
b10 n
b10 H"
b11000 R
b11000 ""
b11000 #"
b11000 J
b11000 !"
b11000 D"
b10 '
b10 ,
b10 6
b10 O
b10 m
b10 ?"
1)
#53
b11000 (
b11000 4
b11000 N
b11000 7"
b11000 C"
#54
b11000 P
b11000 ~
b11000 $"
b11000 6"
#55
b110 5
b110 I"
b110 [
b1 =
b1 M"
b0 >
b0 K"
b1 I
b1000001100000000000000001 %
b1000001100000000000000001 1
#56
b1 D
b1 }
b1 <"
b1 C
b1 |
b1 ("
b1 ?
b1 '"
b1 4"
b1 E"
b1 @
b1 1"
b1 2"
b1 8"
b1 A
b1 s
b1 ."
b1 /"
b1 B
b1 v
b1 +"
b1 ,"
b1 E
b1 p
b1 z
b1 )"
b0 V
b0 ="
0b
0)
#57
b10 D
b10 }
b10 <"
b10 C
b10 |
b10 ("
b10 ?
b10 '"
b10 4"
b10 E"
b10 @
b10 1"
b10 2"
b10 8"
b10 A
b10 s
b10 ."
b10 /"
b10 B
b10 v
b10 +"
b10 ,"
b1 T
b1 n
b1 H"
b10 E
b10 p
b10 z
b10 )"
b1 '
b1 ,
b1 6
b1 O
b1 m
b1 ?"
b10 G
b10 y
b10 A"
b10 L"
b0 !
b0 +
b0 8
b0 H
b0 >"
b0 F"
b0 J"
#58
b10 T
b10 n
b10 H"
b10 '
b10 ,
b10 6
b10 O
b10 m
b10 ?"
b11111110 F
b11111110 x
b11111110 @"
#60
b11100 Q
b11100 %"
b11100 5"
b11100 R
b11100 ""
b11100 #"
b11100 J
b11100 !"
b11100 D"
1)
#61
b11100 (
b11100 4
b11100 N
b11100 7"
b11100 C"
#62
b11100 P
b11100 ~
b11100 $"
b11100 6"
#63
b10 5
b10 I"
b10 [
b100 >
b100 K"
b111 I
b111000000100000010000000001 %
b111000000100000010000000001 1
#64
b1000 ;
b1000 O"
b1000 P"
b11111110 D
b11111110 }
b11111110 <"
b11111110 C
b11111110 |
b11111110 ("
b11111110 ?
b11111110 '"
b11111110 4"
b11111110 E"
b11111110 @
b11111110 1"
b11111110 2"
b11111110 8"
b11111110 A
b11111110 s
b11111110 ."
b11111110 /"
b11111110 B
b11111110 v
b11111110 +"
b11111110 ,"
b11111110 E
b11111110 p
b11111110 z
b11111110 )"
b10 \
b10 {
b10 N"
1Y
b1 V
b1 ="
1b
0k
0)
#65
b1 !
b1 +
b1 8
b1 H
b1 >"
b1 F"
b1 J"
#66
b11111111 T
b11111111 n
b11111111 H"
b100100 P
b100100 ~
b100100 $"
b100100 6"
b11111111 '
b11111111 ,
b11111111 6
b11111111 O
b11111111 m
b11111111 ?"
#68
b100000 Q
b100000 %"
b100000 5"
b100000 R
b100000 ""
b100000 #"
b100000 J
b100000 !"
b100000 D"
1)
#69
b100000 (
b100000 4
b100000 N
b100000 7"
b100000 C"
#70
b101000 P
b101000 ~
b101000 $"
b101000 6"
#71
b100 5
b100 I"
b100 [
b0 =
b0 M"
b0 >
b0 K"
b110 I
b110111111000000000000000000 %
b110111111000000000000000000 1
#72
b11111111111111111111111111110000 ;
b11111111111111111111111111110000 O"
b11111111111111111111111111110000 P"
b11111100 \
b11111100 {
b11111100 N"
1]
0Y
0)
#73
b0 G
b0 y
b0 A"
b0 L"
b0 !
b0 +
b0 8
b0 H
b0 >"
b0 F"
b0 J"
#74
b0 D
b0 }
b0 <"
b0 C
b0 |
b0 ("
b0 ?
b0 '"
b0 4"
b0 E"
b0 @
b0 1"
b0 2"
b0 8"
b0 A
b0 s
b0 ."
b0 /"
b0 B
b0 v
b0 +"
b0 ,"
b0 E
b0 p
b0 z
b0 )"
b0 F
b0 x
b0 @"
b10000 P
b10000 ~
b10000 $"
b10000 6"
#75
19
0:
b0 T
b0 n
b0 H"
b0 '
b0 ,
b0 6
b0 O
b0 m
b0 ?"
#76
b100100 Q
b100100 %"
b100100 5"
b100100 R
b100100 ""
b100100 #"
b100100 J
b100100 !"
b100100 D"
1)
#77
b10000 (
b10000 4
b10000 N
b10000 7"
b10000 C"
#78
b10100 P
b10100 ~
b10100 $"
b10100 6"
#79
b101 5
b101 I"
b101 [
b11 =
b11 M"
b10 >
b10 K"
b10 I
b10000001010000001000000011 %
b10000001010000001000000011 1
#80
b0 ;
b0 O"
b0 P"
0]
b0 \
b0 {
b0 N"
0b
1k
0)
#81
b11 D
b11 }
b11 <"
b11 C
b11 |
b11 ("
b11 ?
b11 '"
b11 4"
b11 E"
b11 @
b11 1"
b11 2"
b11 8"
b11 A
b11 s
b11 ."
b11 /"
b11 B
b11 v
b11 +"
b11 ,"
b11 E
b11 p
b11 z
b11 )"
b11 G
b11 y
b11 A"
b11 L"
b101 !
b101 +
b101 8
b101 H
b101 >"
b101 F"
b101 J"
#82
b11111101 F
b11111101 x
b11111101 @"
b100100 P
b100100 ~
b100100 $"
b100100 6"
#83
09
1:
b1000 T
b1000 n
b1000 H"
b1000 '
b1000 ,
b1000 6
b1000 O
b1000 m
b1000 ?"
#84
b10100 Q
b10100 %"
b10100 5"
b10100 R
b10100 ""
b10100 #"
b10100 J
b10100 !"
b10100 D"
1)
#85
b10100 (
b10100 4
b10100 N
b10100 7"
b10100 C"
#86
b10100 P
b10100 ~
b10100 $"
b10100 6"
#87
b1 5
b1 I"
b1 [
b100 =
b100 M"
b1 >
b1 K"
b11 I
b11000000010000000100000100 %
b11000000010000000100000100 1
#88
b11111101 D
b11111101 }
b11111101 <"
b11111101 C
b11111101 |
b11111101 ("
b11111101 ?
b11111101 '"
b11111101 4"
b11111101 E"
b11111101 @
b11111101 1"
b11111101 2"
b11111101 8"
b11111101 A
b11111101 s
b11111101 ."
b11111101 /"
b11111101 B
b11111101 v
b11111101 +"
b11111101 ,"
b11111101 E
b11111101 p
b11111101 z
b11111101 )"
1b
0)
#89
b1 G
b1 y
b1 A"
b1 L"
b10 !
b10 +
b10 8
b10 H
b10 >"
b10 F"
b10 J"
#90
b11111111 D
b11111111 }
b11111111 <"
b11111111 C
b11111111 |
b11111111 ("
b11111111 ?
b11111111 '"
b11111111 4"
b11111111 E"
b11111111 @
b11111111 1"
b11111111 2"
b11111111 8"
b11111111 A
b11111111 s
b11111111 ."
b11111111 /"
b11111111 B
b11111111 v
b11111111 +"
b11111111 ,"
b11111111 E
b11111111 p
b11111111 z
b11111111 )"
b11111111 T
b11111111 n
b11111111 H"
b11111111 F
b11111111 x
b11111111 @"
b11111111 '
b11111111 ,
b11111111 6
b11111111 O
b11111111 m
b11111111 ?"
#92
b11000 Q
b11000 %"
b11000 5"
b1 T
b1 n
b1 H"
b11000 R
b11000 ""
b11000 #"
b11000 J
b11000 !"
b11000 D"
b1 '
b1 ,
b1 6
b1 O
b1 m
b1 ?"
1)
#93
b11000 (
b11000 4
b11000 N
b11000 7"
b11000 C"
#94
b11000 P
b11000 ~
b11000 $"
b11000 6"
#95
b110 5
b110 I"
b110 [
b1 =
b1 M"
b0 >
b0 K"
b1 I
b1000001100000000000000001 %
b1000001100000000000000001 1
#96
b1 D
b1 }
b1 <"
b1 C
b1 |
b1 ("
b1 ?
b1 '"
b1 4"
b1 E"
b1 @
b1 1"
b1 2"
b1 8"
b1 A
b1 s
b1 ."
b1 /"
b1 B
b1 v
b1 +"
b1 ,"
b1 E
b1 p
b1 z
b1 )"
b0 V
b0 ="
0b
0)
#97
b0 !
b0 +
b0 8
b0 H
b0 >"
b0 F"
b0 J"
#100
b11100 Q
b11100 %"
b11100 5"
b11100 R
b11100 ""
b11100 #"
b11100 J
b11100 !"
b11100 D"
1)
#101
b11100 (
b11100 4
b11100 N
b11100 7"
b11100 C"
#102
b11100 P
b11100 ~
b11100 $"
b11100 6"
#103
b10 5
b10 I"
b10 [
b100 >
b100 K"
b111 I
b111000000100000010000000001 %
b111000000100000010000000001 1
#104
b1000 ;
b1000 O"
b1000 P"
b11111111 D
b11111111 }
b11111111 <"
b11111111 C
b11111111 |
b11111111 ("
b11111111 ?
b11111111 '"
b11111111 4"
b11111111 E"
b11111111 @
b11111111 1"
b11111111 2"
b11111111 8"
b11111111 A
b11111111 s
b11111111 ."
b11111111 /"
b11111111 B
b11111111 v
b11111111 +"
b11111111 ,"
b11111111 E
b11111111 p
b11111111 z
b11111111 )"
b10 \
b10 {
b10 N"
1Y
b1 V
b1 ="
1b
0k
0)
#105
b1 !
b1 +
b1 8
b1 H
b1 >"
b1 F"
b1 J"
#106
12
19
0:
b0 T
b0 n
b0 H"
b100100 P
b100100 ~
b100100 $"
b100100 6"
b0 '
b0 ,
b0 6
b0 O
b0 m
b0 ?"
#108
b100100 Q
b100100 %"
b100100 5"
b100100 R
b100100 ""
b100100 #"
b100000 J
b100000 !"
b100000 D"
1)
#109
b100100 (
b100100 4
b100100 N
b100100 7"
b100100 C"
#110
b101000 P
b101000 ~
b101000 $"
b101000 6"
#111
b1 5
b1 I"
b1 [
b0 >
b0 K"
b0 I
b10000000001101001 %
b10000000001101001 1
#112
b110100100 ;
b110100100 O"
b110100100 P"
b1 C
b1 |
b1 ("
b1 ?
b1 '"
b1 4"
b1 E"
b1 @
b1 1"
b1 2"
b1 8"
b1 A
b1 s
b1 ."
b1 /"
b1 B
b1 v
b1 +"
b1 ,"
02
b1101001 D
b1101001 }
b1101001 <"
b1 E
b1 p
b1 z
b1 )"
0Y
b1101001 \
b1101001 {
b1101001 N"
b0 V
b0 ="
0c
0b
1k
0)
#113
09
1:
b1101001 T
b1101001 n
b1101001 H"
b1101001 '
b1101001 ,
b1101001 6
b1101001 O
b1101001 m
b1101001 ?"
b0 !
b0 +
b0 8
b0 H
b0 >"
b0 F"
b0 J"
#114
b111000100 P
b111000100 ~
b111000100 $"
b111000100 6"
#116
b101000 Q
b101000 %"
b101000 5"
b101000 R
b101000 ""
b101000 #"
b101000 J
b101000 !"
b101000 D"
1)
#117
b101000 (
b101000 4
b101000 N
b101000 7"
b101000 C"
#118
b111001100 P
b111001100 ~
b111001100 $"
b111001100 6"
#119
b100 5
b100 I"
b100 [
b1000000000000000001 %
b1000000000000000001 1
#120
b100 ;
b100 O"
b100 P"
b1101001 C
b1101001 |
b1101001 ("
b1101001 ?
b1101001 '"
b1101001 4"
b1101001 E"
b1101001 @
b1101001 1"
b1101001 2"
b1101001 8"
b1101001 A
b1101001 s
b1101001 ."
b1101001 /"
b1101001 B
b1101001 v
b1101001 +"
b1101001 ,"
b1 D
b1 }
b1 <"
b1101001 E
b1101001 p
b1101001 z
b1101001 )"
b1 \
b1 {
b1 N"
b1101001 G
b1101001 y
b1101001 A"
b1101001 L"
0)
#121
b1 T
b1 n
b1 H"
b1 '
b1 ,
b1 6
b1 O
b1 m
b1 ?"
b10010111 F
b10010111 x
b10010111 @"
#122
b101100 P
b101100 ~
b101100 $"
b101100 6"
#124
b101100 Q
b101100 %"
b101100 5"
b101100 R
b101100 ""
b101100 #"
b101100 J
b101100 !"
b101100 D"
1)
#125
b101100 (
b101100 4
b101100 N
b101100 7"
b101100 C"
#126
b110000 P
b110000 ~
b110000 $"
b110000 6"
#127
b10 5
b10 I"
b10 [
b101 =
b101 M"
b100000000000000101 %
b100000000000000101 1
#128
b10100 ;
b10100 O"
b10100 P"
b101 D
b101 }
b101 <"
b101 \
b101 {
b101 N"
0)
#129
b1000 C
b1000 |
b1000 ("
b1000 ?
b1000 '"
b1000 4"
b1000 E"
b1000 @
b1000 1"
b1000 2"
b1000 8"
b1000 A
b1000 s
b1000 ."
b1000 /"
b1000 B
b1000 v
b1000 +"
b1000 ,"
b101 T
b101 n
b101 H"
b1000 E
b1000 p
b1000 z
b1000 )"
b101 '
b101 ,
b101 6
b101 O
b101 m
b101 ?"
b1000 G
b1000 y
b1000 A"
b1000 L"
#130
b11111000 F
b11111000 x
b11111000 @"
b1000000 P
b1000000 ~
b1000000 $"
b1000000 6"
#132
b110000 Q
b110000 %"
b110000 5"
b110000 R
b110000 ""
b110000 #"
b110000 J
b110000 !"
b110000 D"
1)
#133
b110000 (
b110000 4
b110000 N
b110000 7"
b110000 C"
#134
b1000100 P
b1000100 ~
b1000100 $"
b1000100 6"
#135
b11 5
b11 I"
b11 [
b11 =
b11 M"
b110000000000000011 %
b110000000000000011 1
#136
b1100 ;
b1100 O"
b1100 P"
b11 D
b11 }
b11 <"
b11 \
b11 {
b11 N"
0)
#137
b11 C
b11 |
b11 ("
b11 ?
b11 '"
b11 4"
b11 E"
b11 @
b11 1"
b11 2"
b11 8"
b11 A
b11 s
b11 ."
b11 /"
b11 B
b11 v
b11 +"
b11 ,"
b11 T
b11 n
b11 H"
b11 E
b11 p
b11 z
b11 )"
b11 '
b11 ,
b11 6
b11 O
b11 m
b11 ?"
b11 G
b11 y
b11 A"
b11 L"
#138
b11111101 F
b11111101 x
b11111101 @"
b111100 P
b111100 ~
b111100 $"
b111100 6"
#140
b110100 Q
b110100 %"
b110100 5"
b110100 R
b110100 ""
b110100 #"
b110100 J
b110100 !"
b110100 D"
1)
#141
b110100 (
b110100 4
b110100 N
b110100 7"
b110100 C"
#142
b1000000 P
b1000000 ~
b1000000 $"
b1000000 6"
#143
b0 5
b0 I"
b0 [
b100 =
b100 M"
b1 >
b1 K"
b1110 I
b1110000000000000000100000100 %
b1110000000000000000100000100 1
#144
b0 ;
b0 O"
b0 P"
1/
1&
bx T
bx n
bx H"
1"
1g
1U
b0 \
b0 {
b0 N"
1c
0k
0)
#145
b1 D
b1 }
b1 <"
b1 C
b1 |
b1 ("
b1 ?
b1 '"
b1 4"
b1 E"
b1 @
b1 1"
b1 2"
b1 8"
b1 A
b1 s
b1 ."
b1 /"
b1 B
b1 v
b1 +"
b1 ,"
b1 E
b1 p
b1 z
b1 )"
b1 G
b1 y
b1 A"
b1 L"
b1101001 !
b1101001 +
b1101001 8
b1101001 H
b1101001 >"
b1101001 F"
b1101001 J"
#146
b1 '
b1 ,
b1 6
b1 O
b1 m
b1 ?"
b11111111 F
b11111111 x
b11111111 @"
b110100 P
b110100 ~
b110100 $"
b110100 6"
#148
1)
#152
0)
#156
1)
#160
0)
#164
1)
#168
0)
#172
1)
#176
0)
#180
1)
#184
0)
